EDI_BKRP_20180614
TableName	Actflag	Created	Changed	BkrpID	SecID	ISIN	IssID	NotificationDate	FilingDate
BKRP	U	2008/09/15	2018/06/14	890	81262	US5249088866	35557	2008/09/15	2008/09/15
BKRP	U	2008/09/15	2018/06/14	890	81269	US5249087041	35557	2008/09/15	2008/09/15
BKRP	U	2008/09/15	2018/06/14	890	93590	US5249088601	35557	2008/09/15	2008/09/15
BKRP	U	2008/09/15	2018/06/14	890	108734		35557	2008/09/15	2008/09/15
BKRP	U	2008/09/15	2018/06/14	890	108735	US5249087207	35557	2008/09/15	2008/09/15
BKRP	U	2008/09/15	2018/06/14	890	131688	US5249086399	35557	2008/09/15	2008/09/15
BKRP	U	2008/09/15	2018/06/14	890	168168		35557	2008/09/15	2008/09/15
BKRP	U	2008/09/15	2018/06/14	890	172209		35557	2008/09/15	2008/09/15
BKRP	U	2008/09/15	2018/06/14	890	199164	US524908LT55	35557	2008/09/15	2008/09/15
BKRP	U	2008/09/15	2018/06/14	890	210591	US52520X2080	35557	2008/09/15	2008/09/15
BKRP	U	2008/09/15	2018/06/14	890	254271		35557	2008/09/15	2008/09/15
BKRP	U	2008/09/15	2018/06/14	890	254372		35557	2008/09/15	2008/09/15
BKRP	U	2008/09/15	2018/06/14	890	256196		35557	2008/09/15	2008/09/15
BKRP	U	2008/09/15	2018/06/14	890	256740		35557	2008/09/15	2008/09/15
BKRP	U	2008/09/15	2018/06/14	890	256770		35557	2008/09/15	2008/09/15
BKRP	U	2008/09/15	2018/06/14	890	256802		35557	2008/09/15	2008/09/15
BKRP	U	2008/09/15	2018/06/14	890	257819		35557	2008/09/15	2008/09/15
BKRP	U	2008/09/15	2018/06/14	890	258451		35557	2008/09/15	2008/09/15
BKRP	U	2008/09/15	2018/06/14	890	270389		35557	2008/09/15	2008/09/15
BKRP	U	2008/09/15	2018/06/14	890	275208	US52519FDQ19	35557	2008/09/15	2008/09/15
BKRP	U	2008/09/15	2018/06/14	890	394935	US52517PUP43	35557	2008/09/15	2008/09/15
BKRP	U	2008/09/15	2018/06/14	890	399289	US52517PSZ52	35557	2008/09/15	2008/09/15
BKRP	U	2008/09/15	2018/06/14	890	399299	US52517PVM03	35557	2008/09/15	2008/09/15
BKRP	U	2008/09/15	2018/06/14	890	399319	US52517PYB11	35557	2008/09/15	2008/09/15
BKRP	U	2008/09/15	2018/06/14	890	405362	US52517PH615	35557	2008/09/15	2008/09/15
BKRP	U	2008/09/15	2018/06/14	890	609459	US52517PA354	35557	2008/09/15	2008/09/15
BKRP	U	2008/09/15	2018/06/14	890	612142	US52517PR606	35557	2008/09/15	2008/09/15
BKRP	U	2008/09/15	2018/06/14	890	627639	US52517PT685	35557	2008/09/15	2008/09/15
BKRP	U	2008/09/15	2018/06/14	890	627650	US52517PT768	35557	2008/09/15	2008/09/15
BKRP	U	2008/09/15	2018/06/14	890	665661	US52517PC749	35557	2008/09/15	2008/09/15
BKRP	U	2008/09/15	2018/06/14	890	665666	US52517PJ850	35557	2008/09/15	2008/09/15
BKRP	U	2008/09/15	2018/06/14	890	665674	US52517PN647	35557	2008/09/15	2008/09/15
BKRP	U	2008/09/15	2018/06/14	890	708025	US52522L3437	35557	2008/09/15	2008/09/15
BKRP	U	2008/09/15	2018/06/14	890	769123	US52520W3170	35557	2008/09/15	2008/09/15
BKRP	U	2008/09/15	2018/06/14	890	809136	US52523J4537	35557	2008/09/15	2008/09/15
BKRP	U	2008/09/15	2018/06/14	890	839756	US52517PD655	35557	2008/09/15	2008/09/15
BKRP	U	2008/09/15	2018/06/14	890	910907		35557	2008/09/15	2008/09/15
BKRP	U	2008/09/15	2018/06/14	890	911096		35557	2008/09/15	2008/09/15
BKRP	U	2008/09/15	2018/06/14	890	921157		35557	2008/09/15	2008/09/15
BKRP	U	2008/09/15	2018/06/14	890	921709		35557	2008/09/15	2008/09/15
BKRP	U	2008/09/15	2018/06/14	890	921792		35557	2008/09/15	2008/09/15
BKRP	U	2008/09/15	2018/06/14	890	922239		35557	2008/09/15	2008/09/15
BKRP	U	2008/09/15	2018/06/14	890	922399		35557	2008/09/15	2008/09/15
BKRP	U	2008/09/15	2018/06/14	890	922402		35557	2008/09/15	2008/09/15
BKRP	U	2008/09/15	2018/06/14	890	933137	US52517PE232	35557	2008/09/15	2008/09/15
BKRP	U	2008/09/15	2018/06/14	890	933201		35557	2008/09/15	2008/09/15
BKRP	U	2008/09/15	2018/06/14	890	933239		35557	2008/09/15	2008/09/15
BKRP	U	2008/09/15	2018/06/14	890	933305	US524908SK73	35557	2008/09/15	2008/09/15
BKRP	U	2008/09/15	2018/06/14	890	933306		35557	2008/09/15	2008/09/15
BKRP	U	2008/09/15	2018/06/14	890	933341	US52517P4K43	35557	2008/09/15	2008/09/15
BKRP	U	2008/09/15	2018/06/14	890	933597		35557	2008/09/15	2008/09/15
BKRP	U	2008/09/15	2018/06/14	890	942259		35557	2008/09/15	2008/09/15
BKRP	U	2008/09/15	2018/06/14	890	946580	US52517PXU01	35557	2008/09/15	2008/09/15
BKRP	U	2008/09/15	2018/06/14	890	946660	US5252M0AN70	35557	2008/09/15	2008/09/15
BKRP	U	2008/09/15	2018/06/14	890	946760		35557	2008/09/15	2008/09/15
BKRP	U	2008/09/15	2018/06/14	890	946853		35557	2008/09/15	2008/09/15
BKRP	U	2008/09/15	2018/06/14	890	946904	US52517P5Q04	35557	2008/09/15	2008/09/15
BKRP	U	2008/09/15	2018/06/14	890	947759	US52517P7K16	35557	2008/09/15	2008/09/15
BKRP	U	2008/09/15	2018/06/14	890	947832	US52517PK833	35557	2008/09/15	2008/09/15
BKRP	U	2008/09/15	2018/06/14	890	947856	US5252M0CP01	35557	2008/09/15	2008/09/15
BKRP	U	2008/09/15	2018/06/14	890	948096		35557	2008/09/15	2008/09/15
BKRP	U	2008/09/15	2018/06/14	890	948120	US524908MY32	35557	2008/09/15	2008/09/15
BKRP	U	2008/09/15	2018/06/14	890	948178	US5249086M72	35557	2008/09/15	2008/09/15
BKRP	U	2008/09/15	2018/06/14	890	948194	US5252M0ER49	35557	2008/09/15	2008/09/15
BKRP	U	2008/09/15	2018/06/14	890	948496	US524908FL93	35557	2008/09/15	2008/09/15
BKRP	U	2008/09/15	2018/06/14	890	948612		35557	2008/09/15	2008/09/15
BKRP	U	2008/09/15	2018/06/14	890	948711		35557	2008/09/15	2008/09/15
BKRP	U	2008/09/15	2018/06/14	890	948785	US52517PP212	35557	2008/09/15	2008/09/15
BKRP	U	2008/09/15	2018/06/14	890	948792	US52517PN985	35557	2008/09/15	2008/09/15
BKRP	U	2008/09/15	2018/06/14	890	948811		35557	2008/09/15	2008/09/15
BKRP	U	2008/09/15	2018/06/14	890	948837		35557	2008/09/15	2008/09/15
BKRP	U	2008/09/15	2018/06/14	890	949043		35557	2008/09/15	2008/09/15
BKRP	U	2008/09/15	2018/06/14	890	949053	US524908MN76	35557	2008/09/15	2008/09/15
BKRP	U	2008/09/15	2018/06/14	890	949073		35557	2008/09/15	2008/09/15
BKRP	U	2008/09/15	2018/06/14	890	949097		35557	2008/09/15	2008/09/15
BKRP	U	2008/09/15	2018/06/14	890	949101	US524908FN59	35557	2008/09/15	2008/09/15
BKRP	U	2008/09/15	2018/06/14	890	949124		35557	2008/09/15	2008/09/15
BKRP	U	2008/09/15	2018/06/14	890	949311		35557	2008/09/15	2008/09/15
BKRP	U	2008/09/15	2018/06/14	890	949318		35557	2008/09/15	2008/09/15
BKRP	U	2008/09/15	2018/06/14	890	949344		35557	2008/09/15	2008/09/15
BKRP	U	2008/09/15	2018/06/14	890	949363	US524908FP08	35557	2008/09/15	2008/09/15
BKRP	U	2008/09/15	2018/06/14	890	949364		35557	2008/09/15	2008/09/15
BKRP	U	2008/09/15	2018/06/14	890	950131	US524908WU00	35557	2008/09/15	2008/09/15
BKRP	U	2008/09/15	2018/06/14	890	950134	US5252M0ED52	35557	2008/09/15	2008/09/15
BKRP	U	2008/09/15	2018/06/14	890	950320		35557	2008/09/15	2008/09/15
BKRP	U	2008/09/15	2018/06/14	890	950373		35557	2008/09/15	2008/09/15
BKRP	U	2008/09/15	2018/06/14	890	950380	US52517P3G40	35557	2008/09/15	2008/09/15
BKRP	U	2008/09/15	2018/06/14	890	950406	US5252M0AF47	35557	2008/09/15	2008/09/15
BKRP	U	2008/09/15	2018/06/14	890	950599		35557	2008/09/15	2008/09/15
BKRP	U	2008/09/15	2018/06/14	890	950651		35557	2008/09/15	2008/09/15
BKRP	U	2008/09/15	2018/06/14	890	950751		35557	2008/09/15	2008/09/15
BKRP	U	2008/09/15	2018/06/14	890	950770	US5252M0AL15	35557	2008/09/15	2008/09/15
BKRP	U	2008/09/15	2018/06/14	890	951063	US52523J4388	35557	2008/09/15	2008/09/15
BKRP	U	2008/09/15	2018/06/14	890	951091		35557	2008/09/15	2008/09/15
BKRP	U	2008/09/15	2018/06/14	890	951098		35557	2008/09/15	2008/09/15
BKRP	U	2008/09/15	2018/06/14	890	951193		35557	2008/09/15	2008/09/15
BKRP	U	2008/09/15	2018/06/14	890	951196		35557	2008/09/15	2008/09/15
BKRP	U	2008/09/15	2018/06/14	890	951238	US5252M0BQ92	35557	2008/09/15	2008/09/15
BKRP	U	2008/09/15	2018/06/14	890	951248	US52517P5M99	35557	2008/09/15	2008/09/15
BKRP	U	2008/09/15	2018/06/14	890	951274		35557	2008/09/15	2008/09/15
BKRP	U	2008/09/15	2018/06/14	890	951309	US5249083M00	35557	2008/09/15	2008/09/15
BKRP	U	2008/09/15	2018/06/14	890	951398	US52517P2L44	35557	2008/09/15	2008/09/15
BKRP	U	2008/09/15	2018/06/14	890	951412	US52517P2K60	35557	2008/09/15	2008/09/15
BKRP	U	2008/09/15	2018/06/14	890	951433	US52517P2V26	35557	2008/09/15	2008/09/15
BKRP	U	2008/09/15	2018/06/14	890	951457	US5252M0ES22	35557	2008/09/15	2008/09/15
BKRP	U	2008/09/15	2018/06/14	890	951466	US52517PVR99	35557	2008/09/15	2008/09/15
BKRP	U	2008/09/15	2018/06/14	890	951517	US52517PD572	35557	2008/09/15	2008/09/15
BKRP	U	2008/09/15	2018/06/14	890	951665		35557	2008/09/15	2008/09/15
BKRP	U	2008/09/15	2018/06/14	890	951682		35557	2008/09/15	2008/09/15
BKRP	U	2008/09/15	2018/06/14	890	951767		35557	2008/09/15	2008/09/15
BKRP	U	2008/09/15	2018/06/14	890	952077	US524908JJ02	35557	2008/09/15	2008/09/15
BKRP	U	2008/09/15	2018/06/14	890	952082		35557	2008/09/15	2008/09/15
BKRP	U	2008/09/15	2018/06/14	890	952118	US52517PFE60	35557	2008/09/15	2008/09/15
BKRP	U	2008/09/15	2018/06/14	890	952270	US524908WW65	35557	2008/09/15	2008/09/15
BKRP	U	2008/09/15	2018/06/14	890	952477	US5252M0BE62	35557	2008/09/15	2008/09/15
BKRP	U	2008/09/15	2018/06/14	890	952488	US5252M0CR66	35557	2008/09/15	2008/09/15
BKRP	U	2008/09/15	2018/06/14	890	952579	US52517P2W09	35557	2008/09/15	2008/09/15
BKRP	U	2008/09/15	2018/06/14	890	952659	US524908XK19	35557	2008/09/15	2008/09/15
BKRP	U	2008/09/15	2018/06/14	890	952898		35557	2008/09/15	2008/09/15
BKRP	U	2008/09/15	2018/06/14	890	953227	US524908UK46	35557	2008/09/15	2008/09/15
BKRP	U	2008/09/15	2018/06/14	890	953441		35557	2008/09/15	2008/09/15
BKRP	U	2008/09/15	2018/06/14	890	953455		35557	2008/09/15	2008/09/15
BKRP	U	2008/09/15	2018/06/14	890	953961		35557	2008/09/15	2008/09/15
BKRP	U	2008/09/15	2018/06/14	890	954108	US52517P4Y47	35557	2008/09/15	2008/09/15
BKRP	U	2008/09/15	2018/06/14	890	954150		35557	2008/09/15	2008/09/15
BKRP	U	2008/09/15	2018/06/14	890	954151		35557	2008/09/15	2008/09/15
BKRP	U	2008/09/15	2018/06/14	890	954260	US524908TY68	35557	2008/09/15	2008/09/15
BKRP	U	2008/09/15	2018/06/14	890	954306	US52517PVC21	35557	2008/09/15	2008/09/15
BKRP	U	2008/09/15	2018/06/14	890	954332	US524908UZ15	35557	2008/09/15	2008/09/15
BKRP	U	2008/09/15	2018/06/14	890	954341		35557	2008/09/15	2008/09/15
BKRP	U	2008/09/15	2018/06/14	890	954378	US52517P7E55	35557	2008/09/15	2008/09/15
BKRP	U	2008/09/15	2018/06/14	890	954406	US5249086U98	35557	2008/09/15	2008/09/15
BKRP	U	2008/09/15	2018/06/14	890	954435		35557	2008/09/15	2008/09/15
BKRP	U	2008/09/15	2018/06/14	890	954464		35557	2008/09/15	2008/09/15
BKRP	U	2008/09/15	2018/06/14	890	954466	US52517PR523	35557	2008/09/15	2008/09/15
BKRP	U	2008/09/15	2018/06/14	890	954503		35557	2008/09/15	2008/09/15
BKRP	U	2008/09/15	2018/06/14	890	954508		35557	2008/09/15	2008/09/15
BKRP	U	2008/09/15	2018/06/14	890	954524		35557	2008/09/15	2008/09/15
BKRP	U	2008/09/15	2018/06/14	890	954547	US52517PG393	35557	2008/09/15	2008/09/15
BKRP	U	2008/09/15	2018/06/14	890	954553	US52517PG211	35557	2008/09/15	2008/09/15
BKRP	U	2008/09/15	2018/06/14	890	954566		35557	2008/09/15	2008/09/15
BKRP	U	2008/09/15	2018/06/14	890	954608	US52523J4123	35557	2008/09/15	2008/09/15
BKRP	U	2008/09/15	2018/06/14	890	954706	US52517PVD04	35557	2008/09/15	2008/09/15
BKRP	U	2008/09/15	2018/06/14	890	954714	US52517PWR80	35557	2008/09/15	2008/09/15
BKRP	U	2008/09/15	2018/06/14	890	954947		35557	2008/09/15	2008/09/15
BKRP	U	2008/09/15	2018/06/14	890	955005		35557	2008/09/15	2008/09/15
BKRP	U	2008/09/15	2018/06/14	890	955119	US52517P6K25	35557	2008/09/15	2008/09/15
BKRP	U	2008/09/15	2018/06/14	890	955174		35557	2008/09/15	2008/09/15
BKRP	U	2008/09/15	2018/06/14	890	955260		35557	2008/09/15	2008/09/15
BKRP	U	2008/09/15	2018/06/14	890	955289		35557	2008/09/15	2008/09/15
BKRP	U	2008/09/15	2018/06/14	890	955375		35557	2008/09/15	2008/09/15
BKRP	U	2008/09/15	2018/06/14	890	955546		35557	2008/09/15	2008/09/15
BKRP	U	2008/09/15	2018/06/14	890	955742	US52517PVE86	35557	2008/09/15	2008/09/15
BKRP	U	2008/09/15	2018/06/14	890	955753		35557	2008/09/15	2008/09/15
BKRP	U	2008/09/15	2018/06/14	890	955828	US52517PVG35	35557	2008/09/15	2008/09/15
BKRP	U	2008/09/15	2018/06/14	890	955909	US52517PC335	35557	2008/09/15	2008/09/15
BKRP	U	2008/09/15	2018/06/14	890	956183	US52517PE984	35557	2008/09/15	2008/09/15
BKRP	U	2008/09/15	2018/06/14	890	956242	US52517PZF16	35557	2008/09/15	2008/09/15
BKRP	U	2008/09/15	2018/06/14	890	956269		35557	2008/09/15	2008/09/15
BKRP	U	2008/09/15	2018/06/14	890	956293		35557	2008/09/15	2008/09/15
BKRP	U	2008/09/15	2018/06/14	890	956304	US52517PZE41	35557	2008/09/15	2008/09/15
BKRP	U	2008/09/15	2018/06/14	890	956355		35557	2008/09/15	2008/09/15
BKRP	U	2008/09/15	2018/06/14	890	956383	US524908NL02	35557	2008/09/15	2008/09/15
BKRP	U	2008/09/15	2018/06/14	890	956413	US524908FJ48	35557	2008/09/15	2008/09/15
BKRP	U	2008/09/15	2018/06/14	890	956416	US52517P5G22	35557	2008/09/15	2008/09/15
BKRP	U	2008/09/15	2018/06/14	890	956444	US52517PWX58	35557	2008/09/15	2008/09/15
BKRP	U	2008/09/15	2018/06/14	890	956454		35557	2008/09/15	2008/09/15
BKRP	U	2008/09/15	2018/06/14	890	956455	US5252M0BD89	35557	2008/09/15	2008/09/15
BKRP	U	2008/09/15	2018/06/14	890	956598		35557	2008/09/15	2008/09/15
BKRP	U	2008/09/15	2018/06/14	890	956608	US52517PW317	35557	2008/09/15	2008/09/15
BKRP	U	2008/09/15	2018/06/14	890	956617		35557	2008/09/15	2008/09/15
BKRP	U	2008/09/15	2018/06/14	890	956619	US52517PG963	35557	2008/09/15	2008/09/15
BKRP	U	2008/09/15	2018/06/14	890	956635	US52517PW564	35557	2008/09/15	2008/09/15
BKRP	U	2008/09/15	2018/06/14	890	956646	US52517PW499	35557	2008/09/15	2008/09/15
BKRP	U	2008/09/15	2018/06/14	890	956664	US5252M0EX17	35557	2008/09/15	2008/09/15
BKRP	U	2008/09/15	2018/06/14	890	956681	US5252M0EB96	35557	2008/09/15	2008/09/15
BKRP	U	2008/09/15	2018/06/14	890	956774		35557	2008/09/15	2008/09/15
BKRP	U	2008/09/15	2018/06/14	890	956882		35557	2008/09/15	2008/09/15
BKRP	U	2008/09/15	2018/06/14	890	956899	US524908XD75	35557	2008/09/15	2008/09/15
BKRP	U	2008/09/15	2018/06/14	890	956908	US5252M0GB78	35557	2008/09/15	2008/09/15
BKRP	U	2008/09/15	2018/06/14	890	957036		35557	2008/09/15	2008/09/15
BKRP	U	2008/09/15	2018/06/14	890	957154		35557	2008/09/15	2008/09/15
BKRP	U	2008/09/15	2018/06/14	890	957178	US52517PU410	35557	2008/09/15	2008/09/15
BKRP	U	2008/09/15	2018/06/14	890	957223	US52519FDA66	35557	2008/09/15	2008/09/15
BKRP	U	2008/09/15	2018/06/14	890	957249		35557	2008/09/15	2008/09/15
BKRP	U	2008/09/15	2018/06/14	890	957585	US52517PK676	35557	2008/09/15	2008/09/15
BKRP	U	2008/09/15	2018/06/14	890	957588	US52517PK593	35557	2008/09/15	2008/09/15
BKRP	U	2008/09/15	2018/06/14	890	957674	US52517PW648	35557	2008/09/15	2008/09/15
BKRP	U	2008/09/15	2018/06/14	890	957768	US52517P7A34	35557	2008/09/15	2008/09/15
BKRP	U	2008/09/15	2018/06/14	890	957781	US524908TX85	35557	2008/09/15	2008/09/15
BKRP	U	2008/09/15	2018/06/14	890	957875		35557	2008/09/15	2008/09/15
BKRP	U	2008/09/15	2018/06/14	890	957894	US524908MK38	35557	2008/09/15	2008/09/15
BKRP	U	2008/09/15	2018/06/14	890	957906	US52517PL740	35557	2008/09/15	2008/09/15
BKRP	U	2008/09/15	2018/06/14	890	957946	US524908MM93	35557	2008/09/15	2008/09/15
BKRP	U	2008/09/15	2018/06/14	890	958203		35557	2008/09/15	2008/09/15
BKRP	U	2008/09/15	2018/06/14	890	958321	US52520WAG69	35557	2008/09/15	2008/09/15
BKRP	U	2008/09/15	2018/06/14	890	958402		35557	2008/09/15	2008/09/15
BKRP	U	2008/09/15	2018/06/14	890	958405	US524908MS63	35557	2008/09/15	2008/09/15
BKRP	U	2008/09/15	2018/06/14	890	958478		35557	2008/09/15	2008/09/15
BKRP	U	2008/09/15	2018/06/14	890	958481	US524908UE85	35557	2008/09/15	2008/09/15
BKRP	U	2008/09/15	2018/06/14	890	958905	US5249085Y20	35557	2008/09/15	2008/09/15
BKRP	U	2008/09/15	2018/06/14	890	959045	US5252M0DA23	35557	2008/09/15	2008/09/15
BKRP	U	2008/09/15	2018/06/14	890	959122	US52517PL583	35557	2008/09/15	2008/09/15
BKRP	U	2008/09/15	2018/06/14	890	959180	US52517PFX42	35557	2008/09/15	2008/09/15
BKRP	U	2008/09/15	2018/06/14	890	959189	US5252M0AD98	35557	2008/09/15	2008/09/15
BKRP	U	2008/09/15	2018/06/14	890	959195	US524908PG98	35557	2008/09/15	2008/09/15
BKRP	U	2008/09/15	2018/06/14	890	959198	US524908MC12	35557	2008/09/15	2008/09/15
BKRP	U	2008/09/15	2018/06/14	890	959237		35557	2008/09/15	2008/09/15
BKRP	U	2008/09/15	2018/06/14	890	959425		35557	2008/09/15	2008/09/15
BKRP	U	2008/09/15	2018/06/14	890	959451	US52523J2143	35557	2008/09/15	2008/09/15
BKRP	U	2008/09/15	2018/06/14	890	959510		35557	2008/09/15	2008/09/15
BKRP	U	2008/09/15	2018/06/14	890	959525	US52517PXL02	35557	2008/09/15	2008/09/15
BKRP	U	2008/09/15	2018/06/14	890	959534	US524908MP25	35557	2008/09/15	2008/09/15
BKRP	U	2008/09/15	2018/06/14	890	959884		35557	2008/09/15	2008/09/15
BKRP	U	2008/09/15	2018/06/14	890	959888	US524908NQ98	35557	2008/09/15	2008/09/15
BKRP	U	2008/09/15	2018/06/14	890	960167		35557	2008/09/15	2008/09/15
BKRP	U	2008/09/15	2018/06/14	890	960407	US524908UH17	35557	2008/09/15	2008/09/15
BKRP	U	2008/09/15	2018/06/14	890	960449	US5252M0BH93	35557	2008/09/15	2008/09/15
BKRP	U	2008/09/15	2018/06/14	890	960466	US5252M0BK23	35557	2008/09/15	2008/09/15
BKRP	U	2008/09/15	2018/06/14	890	960560	US52520WAV37	35557	2008/09/15	2008/09/15
BKRP	U	2008/09/15	2018/06/14	890	960664	US524908MU10	35557	2008/09/15	2008/09/15
BKRP	U	2008/09/15	2018/06/14	890	960673	US52517PYK10	35557	2008/09/15	2008/09/15
BKRP	U	2008/09/15	2018/06/14	890	960746	US524908NE68	35557	2008/09/15	2008/09/15
BKRP	U	2008/09/15	2018/06/14	890	960784	US524908NF34	35557	2008/09/15	2008/09/15
BKRP	U	2008/09/15	2018/06/14	890	960805		35557	2008/09/15	2008/09/15
BKRP	U	2008/09/15	2018/06/14	890	960835		35557	2008/09/15	2008/09/15
BKRP	U	2008/09/15	2018/06/14	890	960992	US524908PD67	35557	2008/09/15	2008/09/15
BKRP	U	2008/09/15	2018/06/14	890	960994	US524908PE41	35557	2008/09/15	2008/09/15
BKRP	U	2008/09/15	2018/06/14	890	961078	US524908NT38	35557	2008/09/15	2008/09/15
BKRP	U	2008/09/15	2018/06/14	890	961083	US524908NU01	35557	2008/09/15	2008/09/15
BKRP	U	2008/09/15	2018/06/14	890	961137		35557	2008/09/15	2008/09/15
BKRP	U	2008/09/15	2018/06/14	890	961203	US524908WV82	35557	2008/09/15	2008/09/15
BKRP	U	2008/09/15	2018/06/14	890	961345	US5252M0DB06	35557	2008/09/15	2008/09/15
BKRP	U	2008/09/15	2018/06/14	890	961525	US524908WF33	35557	2008/09/15	2008/09/15
BKRP	U	2008/09/15	2018/06/14	890	962001		35557	2008/09/15	2008/09/15
BKRP	U	2008/09/15	2018/06/14	890	962146	US524908MZ07	35557	2008/09/15	2008/09/15
BKRP	U	2008/09/15	2018/06/14	890	962178	US5252M0AP29	35557	2008/09/15	2008/09/15
BKRP	U	2008/09/15	2018/06/14	890	962246	US5252M0BU05	35557	2008/09/15	2008/09/15
BKRP	U	2008/09/15	2018/06/14	890	962438		35557	2008/09/15	2008/09/15
BKRP	U	2008/09/15	2018/06/14	890	962548	US5252M0BZ91	35557	2008/09/15	2008/09/15
BKRP	U	2008/09/15	2018/06/14	890	962549		35557	2008/09/15	2008/09/15
BKRP	U	2008/09/15	2018/06/14	890	962591		35557	2008/09/15	2008/09/15
BKRP	U	2008/09/15	2018/06/14	890	963090	US524908PA29	35557	2008/09/15	2008/09/15
BKRP	U	2008/09/15	2018/06/14	890	963187	US52519FAB76	35557	2008/09/15	2008/09/15
BKRP	U	2008/09/15	2018/06/14	890	963198	US52519FAD33	35557	2008/09/15	2008/09/15
BKRP	U	2008/09/15	2018/06/14	890	963230	US5252M0EQ65	35557	2008/09/15	2008/09/15
BKRP	U	2008/09/15	2018/06/14	890	963310	US52517PE562	35557	2008/09/15	2008/09/15
BKRP	U	2008/09/15	2018/06/14	890	963497		35557	2008/09/15	2008/09/15
BKRP	U	2008/09/15	2018/06/14	890	963576	US52517P4C27	35557	2008/09/15	2008/09/15
BKRP	U	2008/09/15	2018/06/14	890	963611	US524908UY40	35557	2008/09/15	2008/09/15
BKRP	U	2008/09/15	2018/06/14	890	963661	US5252M0CX35	35557	2008/09/15	2008/09/15
BKRP	U	2008/09/15	2018/06/14	890	963700		35557	2008/09/15	2008/09/15
BKRP	U	2008/09/15	2018/06/14	890	963712		35557	2008/09/15	2008/09/15
BKRP	U	2008/09/15	2018/06/14	890	963724		35557	2008/09/15	2008/09/15
BKRP	U	2008/09/15	2018/06/14	890	963732	US52517PB428	35557	2008/09/15	2008/09/15
BKRP	U	2008/09/15	2018/06/14	890	963737		35557	2008/09/15	2008/09/15
BKRP	U	2008/09/15	2018/06/14	890	963825	US52517PZW49	35557	2008/09/15	2008/09/15
BKRP	U	2008/09/15	2018/06/14	890	963855		35557	2008/09/15	2008/09/15
BKRP	U	2008/09/15	2018/06/14	890	963857	US52517P3B52	35557	2008/09/15	2008/09/15
BKRP	U	2008/09/15	2018/06/14	890	963858	US524908NM84	35557	2008/09/15	2008/09/15
BKRP	U	2008/09/15	2018/06/14	890	963905	US524908NY23	35557	2008/09/15	2008/09/15
BKRP	U	2008/09/15	2018/06/14	890	964012		35557	2008/09/15	2008/09/15
BKRP	U	2008/09/15	2018/06/14	890	964014		35557	2008/09/15	2008/09/15
BKRP	U	2008/09/15	2018/06/14	890	964030		35557	2008/09/15	2008/09/15
BKRP	U	2008/09/15	2018/06/14	890	964080	US524908SH45	35557	2008/09/15	2008/09/15
BKRP	U	2008/09/15	2018/06/14	890	964192	US52517PUH27	35557	2008/09/15	2008/09/15
BKRP	U	2008/09/15	2018/06/14	890	964465	US5252M0EZ64	35557	2008/09/15	2008/09/15
BKRP	U	2008/09/15	2018/06/14	890	964623	US524908UL29	35557	2008/09/15	2008/09/15
BKRP	U	2008/09/15	2018/06/14	890	964629	US524908UC20	35557	2008/09/15	2008/09/15
BKRP	U	2008/09/15	2018/06/14	890	965017		35557	2008/09/15	2008/09/15
BKRP	U	2008/09/15	2018/06/14	890	965135	US52517PRF08	35557	2008/09/15	2008/09/15
BKRP	U	2008/09/15	2018/06/14	890	965161	US524908W978	35557	2008/09/15	2008/09/15
BKRP	U	2008/09/15	2018/06/14	890	965638	US52517PUK55	35557	2008/09/15	2008/09/15
BKRP	U	2008/09/15	2018/06/14	890	965658		35557	2008/09/15	2008/09/15
BKRP	U	2008/09/15	2018/06/14	890	966201		35557	2008/09/15	2008/09/15
BKRP	U	2008/09/15	2018/06/14	890	966214	US524908WZ96	35557	2008/09/15	2008/09/15
BKRP	U	2008/09/15	2018/06/14	890	966222	US52517PRX14	35557	2008/09/15	2008/09/15
BKRP	U	2008/09/15	2018/06/14	890	966523	US52517P6W62	35557	2008/09/15	2008/09/15
BKRP	U	2008/09/15	2018/06/14	890	966858		35557	2008/09/15	2008/09/15
BKRP	U	2008/09/15	2018/06/14	890	966924	US52517PXR71	35557	2008/09/15	2008/09/15
BKRP	U	2008/09/15	2018/06/14	890	967548	US52517PRH63	35557	2008/09/15	2008/09/15
BKRP	U	2008/09/15	2018/06/14	890	967595	US524908TZ34	35557	2008/09/15	2008/09/15
BKRP	U	2008/09/15	2018/06/14	890	967656	US52517PVK47	35557	2008/09/15	2008/09/15
BKRP	U	2008/09/15	2018/06/14	890	967843	US524908PN40	35557	2008/09/15	2008/09/15
BKRP	U	2008/09/15	2018/06/14	890	967912	US5252M0EV50	35557	2008/09/15	2008/09/15
BKRP	U	2008/09/15	2018/06/14	890	968312	US52517PXG17	35557	2008/09/15	2008/09/15
BKRP	U	2008/09/15	2018/06/14	890	968683	US52519FAG63	35557	2008/09/15	2008/09/15
BKRP	U	2008/09/15	2018/06/14	890	968722	US52519FAK75	35557	2008/09/15	2008/09/15
BKRP	U	2008/09/15	2018/06/14	890	968981	US524908US71	35557	2008/09/15	2008/09/15
BKRP	U	2008/09/15	2018/06/14	890	969089	US52519FEY34	35557	2008/09/15	2008/09/15
BKRP	U	2008/09/15	2018/06/14	890	969133	US52517PYL92	35557	2008/09/15	2008/09/15
BKRP	U	2008/09/15	2018/06/14	890	969138	US52517P5X54	35557	2008/09/15	2008/09/15
BKRP	U	2008/09/15	2018/06/14	890	969219	US524908VU19	35557	2008/09/15	2008/09/15
BKRP	U	2008/09/15	2018/06/14	890	969573	US52517PXP16	35557	2008/09/15	2008/09/15
BKRP	U	2008/09/15	2018/06/14	890	970107	US52517PYS46	35557	2008/09/15	2008/09/15
BKRP	U	2008/09/15	2018/06/14	890	970289	US52517PC822	35557	2008/09/15	2008/09/15
BKRP	U	2008/09/15	2018/06/14	890	970376	US52517PC665	35557	2008/09/15	2008/09/15
BKRP	U	2008/09/15	2018/06/14	890	970490	US52517PWG26	35557	2008/09/15	2008/09/15
BKRP	U	2008/09/15	2018/06/14	890	970493	US5249083F58	35557	2008/09/15	2008/09/15
BKRP	U	2008/09/15	2018/06/14	890	970634	US524908NX40	35557	2008/09/15	2008/09/15
BKRP	U	2008/09/15	2018/06/14	890	970722	US52517PZY05	35557	2008/09/15	2008/09/15
BKRP	U	2008/09/15	2018/06/14	890	970758	US52517PA685	35557	2008/09/15	2008/09/15
BKRP	U	2008/09/15	2018/06/14	890	970852	US52517PUR09	35557	2008/09/15	2008/09/15
BKRP	U	2008/09/15	2018/06/14	890	971013	US52517PH532	35557	2008/09/15	2008/09/15
BKRP	U	2008/09/15	2018/06/14	890	971016	US52517PB675	35557	2008/09/15	2008/09/15
BKRP	U	2008/09/15	2018/06/14	890	971472	US52517PK916	35557	2008/09/15	2008/09/15
BKRP	U	2008/09/15	2018/06/14	890	971799	US52517PD325	35557	2008/09/15	2008/09/15
BKRP	U	2008/09/15	2018/06/14	890	972162	US52517PUD13	35557	2008/09/15	2008/09/15
BKRP	U	2008/09/15	2018/06/14	890	972354	US524908UB47	35557	2008/09/15	2008/09/15
BKRP	U	2008/09/15	2018/06/14	890	972433		35557	2008/09/15	2008/09/15
BKRP	U	2008/09/15	2018/06/14	890	972534	US52517PM995	35557	2008/09/15	2008/09/15
BKRP	U	2008/09/15	2018/06/14	890	972885		35557	2008/09/15	2008/09/15
BKRP	U	2008/09/15	2018/06/14	890	973335	US52517PZX22	35557	2008/09/15	2008/09/15
BKRP	U	2008/09/15	2018/06/14	890	977304		35557	2008/09/15	2008/09/15
BKRP	U	2008/09/15	2018/06/14	890	977326	US524908R366	35557	2008/09/15	2008/09/15
BKRP	U	2008/09/15	2018/06/14	890	977397	US524908TU47	35557	2008/09/15	2008/09/15
BKRP	U	2008/09/15	2018/06/14	890	977486	US52517P6L08	35557	2008/09/15	2008/09/15
BKRP	U	2008/09/15	2018/06/14	890	977719	US52517PZ799	35557	2008/09/15	2008/09/15
BKRP	U	2008/09/15	2018/06/14	890	977728	US52517PY966	35557	2008/09/15	2008/09/15
BKRP	U	2008/09/15	2018/06/14	890	977755	US52517PV400	35557	2008/09/15	2008/09/15
BKRP	U	2008/09/15	2018/06/14	890	977835	US52517PX976	35557	2008/09/15	2008/09/15
BKRP	U	2008/09/15	2018/06/14	890	977999	US5252M0DJ32	35557	2008/09/15	2008/09/15
BKRP	U	2008/09/15	2018/06/14	890	982934	US5252M0FD44	35557	2008/09/15	2008/09/15
BKRP	U	2008/09/15	2018/06/14	890	983354	US52519FAC59	35557	2008/09/15	2008/09/15
BKRP	U	2008/09/15	2018/06/14	890	983386	US52519FAE16	35557	2008/09/15	2008/09/15
BKRP	U	2008/09/15	2018/06/14	890	983947	US5252M0EN35	35557	2008/09/15	2008/09/15
BKRP	U	2008/09/15	2018/06/14	890	984360	US52517PYV74	35557	2008/09/15	2008/09/15
BKRP	U	2008/09/15	2018/06/14	890	984480	US52517P4S78	35557	2008/09/15	2008/09/15
BKRP	U	2008/09/15	2018/06/14	890	984679	US52517PVN85	35557	2008/09/15	2008/09/15
BKRP	U	2008/09/15	2018/06/14	890	984968	US52519FDF53	35557	2008/09/15	2008/09/15
BKRP	U	2008/09/15	2018/06/14	890	985589	US52517PXX40	35557	2008/09/15	2008/09/15
BKRP	U	2008/09/15	2018/06/14	890	985906	US52517PYH80	35557	2008/09/15	2008/09/15
BKRP	U	2008/09/15	2018/06/14	890	985953	US52519FFF36	35557	2008/09/15	2008/09/15
BKRP	U	2008/09/15	2018/06/14	890	986053	US52519FDR91	35557	2008/09/15	2008/09/15
BKRP	U	2008/09/15	2018/06/14	890	986067	US52519FFC05	35557	2008/09/15	2008/09/15
BKRP	U	2008/09/15	2018/06/14	890	986081	US52517PYM75	35557	2008/09/15	2008/09/15
BKRP	U	2008/09/15	2018/06/14	890	986094	US52517PYP07	35557	2008/09/15	2008/09/15
BKRP	U	2008/09/15	2018/06/14	890	986610	US52517PXE68	35557	2008/09/15	2008/09/15
BKRP	U	2008/09/15	2018/06/14	890	986724	US52519FFP18	35557	2008/09/15	2008/09/15
BKRP	U	2008/09/15	2018/06/14	890	986725	US52517PA438	35557	2008/09/15	2008/09/15
BKRP	U	2008/09/15	2018/06/14	890	987280	US52517PYU91	35557	2008/09/15	2008/09/15
BKRP	U	2008/09/15	2018/06/14	890	987431	US52517PYX31	35557	2008/09/15	2008/09/15
BKRP	U	2008/09/15	2018/06/14	890	987446	US52519FFE60	35557	2008/09/15	2008/09/15
BKRP	U	2008/09/15	2018/06/14	890	987465	US52517PD242	35557	2008/09/15	2008/09/15
BKRP	U	2008/09/15	2018/06/14	890	987488	US52517PXY23	35557	2008/09/15	2008/09/15
BKRP	U	2008/09/15	2018/06/14	890	987502	US52517PZS37	35557	2008/09/15	2008/09/15
BKRP	U	2008/09/15	2018/06/14	890	987506	US52517PZA29	35557	2008/09/15	2008/09/15
BKRP	U	2008/09/15	2018/06/14	890	987518	US52517PYZ88	35557	2008/09/15	2008/09/15
BKRP	U	2008/09/15	2018/06/14	890	987530	US52519FFD87	35557	2008/09/15	2008/09/15
BKRP	U	2008/09/15	2018/06/14	890	987666	US52517PF890	35557	2008/09/15	2008/09/15
BKRP	U	2008/09/15	2018/06/14	890	987693	US52517PE315	35557	2008/09/15	2008/09/15
BKRP	U	2008/09/15	2018/06/14	890	987720	US52517PH201	35557	2008/09/15	2008/09/15
BKRP	U	2008/09/15	2018/06/14	890	987726		35557	2008/09/15	2008/09/15
BKRP	U	2008/09/15	2018/06/14	890	987736	US52517PB345	35557	2008/09/15	2008/09/15
BKRP	U	2008/09/15	2018/06/14	890	987813	US52517PZM66	35557	2008/09/15	2008/09/15
BKRP	U	2008/09/15	2018/06/14	890	988020	US52517PZZ79	35557	2008/09/15	2008/09/15
BKRP	U	2008/09/15	2018/06/14	890	988036		35557	2008/09/15	2008/09/15
BKRP	U	2008/09/15	2018/06/14	890	988077	US52517PC251	35557	2008/09/15	2008/09/15
BKRP	U	2008/09/15	2018/06/14	890	988340		35557	2008/09/15	2008/09/15
BKRP	U	2008/09/15	2018/06/14	890	988443	US52517PR374	35557	2008/09/15	2008/09/15
BKRP	U	2008/09/15	2018/06/14	890	988499		35557	2008/09/15	2008/09/15
BKRP	U	2008/09/15	2018/06/14	890	988787	US52517PJ694	35557	2008/09/15	2008/09/15
BKRP	U	2008/09/15	2018/06/14	890	988861		35557	2008/09/15	2008/09/15
BKRP	U	2008/09/15	2018/06/14	890	988870		35557	2008/09/15	2008/09/15
BKRP	U	2008/09/15	2018/06/14	890	988875	US52517PB592	35557	2008/09/15	2008/09/15
BKRP	U	2008/09/15	2018/06/14	890	988877	US52517PQ954	35557	2008/09/15	2008/09/15
BKRP	U	2008/09/15	2018/06/14	890	988959		35557	2008/09/15	2008/09/15
BKRP	U	2008/09/15	2018/06/14	890	988965		35557	2008/09/15	2008/09/15
BKRP	U	2008/09/15	2018/06/14	890	989625		35557	2008/09/15	2008/09/15
BKRP	U	2008/09/15	2018/06/14	890	990051	US52517P6A43	35557	2008/09/15	2008/09/15
BKRP	U	2008/09/15	2018/06/14	890	990170		35557	2008/09/15	2008/09/15
BKRP	U	2008/09/15	2018/06/14	890	990208		35557	2008/09/15	2008/09/15
BKRP	U	2008/09/15	2018/06/14	890	990236	US52517P4N81	35557	2008/09/15	2008/09/15
BKRP	U	2008/09/15	2018/06/14	890	990377		35557	2008/09/15	2008/09/15
BKRP	U	2008/09/15	2018/06/14	890	990507		35557	2008/09/15	2008/09/15
BKRP	U	2008/09/15	2018/06/14	890	990776	US52519FEM95	35557	2008/09/15	2008/09/15
BKRP	U	2008/09/15	2018/06/14	890	991292	US52517PU824	35557	2008/09/15	2008/09/15
BKRP	U	2008/09/15	2018/06/14	890	991297	US52517PU667	35557	2008/09/15	2008/09/15
BKRP	U	2008/09/15	2018/06/14	890	991345		35557	2008/09/15	2008/09/15
BKRP	U	2008/09/15	2018/06/14	890	991357		35557	2008/09/15	2008/09/15
BKRP	U	2008/09/15	2018/06/14	890	991426		35557	2008/09/15	2008/09/15
BKRP	U	2008/09/15	2018/06/14	890	991553	US5252M0CM79	35557	2008/09/15	2008/09/15
BKRP	U	2008/09/15	2018/06/14	890	992375		35557	2008/09/15	2008/09/15
BKRP	U	2008/09/15	2018/06/14	890	1040065		35557	2008/09/15	2008/09/15
BKRP	U	2008/09/15	2018/06/14	890	1040075		35557	2008/09/15	2008/09/15
BKRP	U	2008/09/15	2018/06/14	890	1069608		35557	2008/09/15	2008/09/15
BKRP	U	2008/09/15	2018/06/14	890	1071277		35557	2008/09/15	2008/09/15
BKRP	U	2008/09/15	2018/06/14	890	1071401	US52519FFB22	35557	2008/09/15	2008/09/15
BKRP	U	2008/09/15	2018/06/14	890	1071903	US52517PV996	35557	2008/09/15	2008/09/15
BKRP	U	2008/09/15	2018/06/14	890	1072107		35557	2008/09/15	2008/09/15
BKRP	U	2008/09/15	2018/06/14	890	1072129	US52517P2S96	35557	2008/09/15	2008/09/15
BKRP	U	2008/09/15	2018/06/14	890	1072191	US52517PSJ11	35557	2008/09/15	2008/09/15
BKRP	U	2008/09/15	2018/06/14	890	1072245	US52519FFK21	35557	2008/09/15	2008/09/15
BKRP	U	2008/09/15	2018/06/14	890	1072808	US52517PW804	35557	2008/09/15	2008/09/15
BKRP	U	2008/09/15	2018/06/14	890	1072851		35557	2008/09/15	2008/09/15
BKRP	U	2008/09/15	2018/06/14	890	1072889		35557	2008/09/15	2008/09/15
BKRP	U	2008/09/15	2018/06/14	890	1072996		35557	2008/09/15	2008/09/15
BKRP	U	2008/09/15	2018/06/14	890	1073041		35557	2008/09/15	2008/09/15
BKRP	U	2008/09/15	2018/06/14	890	1073067	US52517PX638	35557	2008/09/15	2008/09/15
BKRP	U	2008/09/15	2018/06/14	890	1073090	US52519FEH01	35557	2008/09/15	2008/09/15
BKRP	U	2008/09/15	2018/06/14	890	1073093	US52519FEJ66	35557	2008/09/15	2008/09/15
BKRP	U	2008/09/15	2018/06/14	890	1073098	US52519FEN78	35557	2008/09/15	2008/09/15
BKRP	U	2008/09/15	2018/06/14	890	1073100		35557	2008/09/15	2008/09/15
BKRP	U	2008/09/15	2018/06/14	890	1073633	US52517PY545	35557	2008/09/15	2008/09/15
BKRP	U	2008/09/15	2018/06/14	890	1074021	US52517PV814	35557	2008/09/15	2008/09/15
BKRP	U	2008/09/15	2018/06/14	890	1074079	US52517PJ777	35557	2008/09/15	2008/09/15
BKRP	U	2008/09/15	2018/06/14	890	1074090	US52517PX711	35557	2008/09/15	2008/09/15
BKRP	U	2008/09/15	2018/06/14	890	1074165	US52517PK346	35557	2008/09/15	2008/09/15
BKRP	U	2008/09/15	2018/06/14	890	1074475	US52519FCR01	35557	2008/09/15	2008/09/15
BKRP	U	2008/09/15	2018/06/14	890	1074971	US52517PW234	35557	2008/09/15	2008/09/15
BKRP	U	2008/09/15	2018/06/14	890	1075184	US52517P3M18	35557	2008/09/15	2008/09/15
BKRP	U	2008/09/15	2018/06/14	890	1075255	US524908R440	35557	2008/09/15	2008/09/15
BKRP	U	2008/09/15	2018/06/14	890	1075275	US52517P4A60	35557	2008/09/15	2008/09/15
BKRP	U	2008/09/15	2018/06/14	890	1078468	US52519FCX78	35557	2008/09/15	2008/09/15
BKRP	U	2008/09/15	2018/06/14	890	1078514		35557	2008/09/15	2008/09/15
BKRP	U	2008/09/15	2018/06/14	890	1078941		35557	2008/09/15	2008/09/15
BKRP	U	2008/09/15	2018/06/14	890	1078949	US52517PQ384	35557	2008/09/15	2008/09/15
BKRP	U	2008/09/15	2018/06/14	890	1079353	US52517P6J51	35557	2008/09/15	2008/09/15
BKRP	U	2008/09/15	2018/06/14	890	1079549	US52519FDL22	35557	2008/09/15	2008/09/15
BKRP	U	2008/09/15	2018/06/14	890	1079558	US52519FDK49	35557	2008/09/15	2008/09/15
BKRP	U	2008/09/15	2018/06/14	890	1079603	US52517P7L98	35557	2008/09/15	2008/09/15
BKRP	U	2008/09/15	2018/06/14	890	1079665	US5252M0CS40	35557	2008/09/15	2008/09/15
BKRP	U	2008/09/15	2018/06/14	890	1080072	US5252M0CW51	35557	2008/09/15	2008/09/15
BKRP	U	2008/09/15	2018/06/14	890	1080101	US5252M0DE45	35557	2008/09/15	2008/09/15
BKRP	U	2008/09/15	2018/06/14	890	1080108		35557	2008/09/15	2008/09/15
BKRP	U	2008/09/15	2018/06/14	890	1080136		35557	2008/09/15	2008/09/15
BKRP	U	2008/09/15	2018/06/14	890	1080137	US5252M0DR57	35557	2008/09/15	2008/09/15
BKRP	U	2008/09/15	2018/06/14	890	1093700	US5252M0AT41	35557	2008/09/15	2008/09/15
BKRP	U	2008/09/15	2018/06/14	890	1093746		35557	2008/09/15	2008/09/15
BKRP	U	2008/09/15	2018/06/14	890	1093757	US5252M0AV96	35557	2008/09/15	2008/09/15
BKRP	U	2008/09/15	2018/06/14	890	1093848		35557	2008/09/15	2008/09/15
BKRP	U	2008/09/15	2018/06/14	890	1093903		35557	2008/09/15	2008/09/15
BKRP	U	2008/09/15	2018/06/14	890	1093951	US52519FFL04	35557	2008/09/15	2008/09/15
BKRP	U	2008/09/15	2018/06/14	890	1093959	US52519FFM86	35557	2008/09/15	2008/09/15
BKRP	U	2008/09/15	2018/06/14	890	1093968	US52519FFN69	35557	2008/09/15	2008/09/15
BKRP	U	2008/09/15	2018/06/14	890	1093970	US5249087N47	35557	2008/09/15	2008/09/15
BKRP	U	2008/09/15	2018/06/14	890	1095147	US52517PZ617	35557	2008/09/15	2008/09/15
BKRP	U	2008/09/15	2018/06/14	890	1095157		35557	2008/09/15	2008/09/15
BKRP	U	2008/09/15	2018/06/14	890	1095176	US52517PZ534	35557	2008/09/15	2008/09/15
BKRP	U	2008/09/15	2018/06/14	890	1095202	US52517P2H32	35557	2008/09/15	2008/09/15
BKRP	U	2008/09/15	2018/06/14	890	1095639		35557	2008/09/15	2008/09/15
BKRP	U	2008/09/15	2018/06/14	890	1095704	US52519FFH91	35557	2008/09/15	2008/09/15
BKRP	U	2008/09/15	2018/06/14	890	1095718		35557	2008/09/15	2008/09/15
BKRP	U	2008/09/15	2018/06/14	890	1095745		35557	2008/09/15	2008/09/15
BKRP	U	2008/09/15	2018/06/14	890	1095767		35557	2008/09/15	2008/09/15
BKRP	U	2008/09/15	2018/06/14	890	1096165		35557	2008/09/15	2008/09/15
BKRP	U	2008/09/15	2018/06/14	890	1096214		35557	2008/09/15	2008/09/15
BKRP	U	2008/09/15	2018/06/14	890	1096259		35557	2008/09/15	2008/09/15
BKRP	U	2008/09/15	2018/06/14	890	1096269		35557	2008/09/15	2008/09/15
BKRP	U	2008/09/15	2018/06/14	890	1096281		35557	2008/09/15	2008/09/15
BKRP	U	2008/09/15	2018/06/14	890	1096328		35557	2008/09/15	2008/09/15
BKRP	U	2008/09/15	2018/06/14	890	1097694	US52517P2F75	35557	2008/09/15	2008/09/15
BKRP	U	2008/09/15	2018/06/14	890	1097952		35557	2008/09/15	2008/09/15
BKRP	U	2008/09/15	2018/06/14	890	1098462		35557	2008/09/15	2008/09/15
BKRP	U	2008/09/15	2018/06/14	890	1098484	US5252M0FC60	35557	2008/09/15	2008/09/15
BKRP	U	2008/09/15	2018/06/14	890	1098730	US52519FBC41	35557	2008/09/15	2008/09/15
BKRP	U	2008/09/15	2018/06/14	890	1098758	US5252M0FK86	35557	2008/09/15	2008/09/15
BKRP	U	2008/09/15	2018/06/14	890	1098782	US5252M0EC79	35557	2008/09/15	2008/09/15
BKRP	U	2008/09/15	2018/06/14	890	1099324	US52517P2N00	35557	2008/09/15	2008/09/15
BKRP	U	2008/09/15	2018/06/14	890	1099330		35557	2008/09/15	2008/09/15
BKRP	U	2008/09/15	2018/06/14	890	1099333		35557	2008/09/15	2008/09/15
BKRP	U	2008/09/15	2018/06/14	890	1099365		35557	2008/09/15	2008/09/15
BKRP	U	2008/09/15	2018/06/14	890	1099382	US52517PSL66	35557	2008/09/15	2008/09/15
BKRP	U	2008/09/15	2018/06/14	890	1099397	US52517PW721	35557	2008/09/15	2008/09/15
BKRP	U	2008/09/15	2018/06/14	890	1100437		35557	2008/09/15	2008/09/15
BKRP	U	2008/09/15	2018/06/14	890	1100441	US5252M0FH57	35557	2008/09/15	2008/09/15
BKRP	U	2008/09/15	2018/06/14	890	1100490	US52517P3U34	35557	2008/09/15	2008/09/15
BKRP	U	2008/09/15	2018/06/14	890	1100495	US52517P3J88	35557	2008/09/15	2008/09/15
BKRP	U	2008/09/15	2018/06/14	890	1100499	US52517P3H23	35557	2008/09/15	2008/09/15
BKRP	U	2008/09/15	2018/06/14	890	1100527	US5252M0FX08	35557	2008/09/15	2008/09/15
BKRP	U	2008/09/15	2018/06/14	890	1100573	US5252M0CF29	35557	2008/09/15	2008/09/15
BKRP	U	2008/09/15	2018/06/14	890	1102101	US52517P3L35	35557	2008/09/15	2008/09/15
BKRP	U	2008/09/15	2018/06/14	890	1103535	US5252M0GN17	35557	2008/09/15	2008/09/15
BKRP	U	2008/09/15	2018/06/14	890	1103636	US5252M0GQ48	35557	2008/09/15	2008/09/15
BKRP	U	2008/09/15	2018/06/14	890	1104006	US52517P4Z12	35557	2008/09/15	2008/09/15
BKRP	U	2008/09/15	2018/06/14	890	1104111	US52517P5S69	35557	2008/09/15	2008/09/15
BKRP	U	2008/09/15	2018/06/14	890	1105497	US52517P5R86	35557	2008/09/15	2008/09/15
BKRP	U	2008/09/15	2018/06/14	890	1105501		35557	2008/09/15	2008/09/15
BKRP	U	2008/09/15	2018/06/14	890	1105557	US52517P6B26	35557	2008/09/15	2008/09/15
BKRP	U	2008/09/15	2018/06/14	890	1105578	US52519FEV94	35557	2008/09/15	2008/09/15
BKRP	U	2008/09/15	2018/06/14	890	1107555		35557	2008/09/15	2008/09/15
BKRP	U	2008/09/15	2018/06/14	890	1108393		35557	2008/09/15	2008/09/15
BKRP	U	2008/09/15	2018/06/14	890	1108397	US52519FER82	35557	2008/09/15	2008/09/15
BKRP	U	2008/09/15	2018/06/14	890	1108418	US52519FES65	35557	2008/09/15	2008/09/15
BKRP	U	2008/09/15	2018/06/14	890	1108551	US52519FEU12	35557	2008/09/15	2008/09/15
BKRP	U	2008/09/15	2018/06/14	890	1108739	US52519FEZ09	35557	2008/09/15	2008/09/15
BKRP	U	2008/09/15	2018/06/14	890	1108806		35557	2008/09/15	2008/09/15
BKRP	U	2008/09/15	2018/06/14	890	1108833	US5252M0AW79	35557	2008/09/15	2008/09/15
BKRP	U	2008/09/15	2018/06/14	890	1108840	US5252M0AA59	35557	2008/09/15	2008/09/15
BKRP	U	2008/09/15	2018/06/14	890	1109286		35557	2008/09/15	2008/09/15
BKRP	U	2008/09/15	2018/06/14	890	1109964		35557	2008/09/15	2008/09/15
BKRP	U	2008/09/15	2018/06/14	890	1119811	US524908WH98	35557	2008/09/15	2008/09/15
BKRP	U	2008/09/15	2018/06/14	890	1146412	US524908JE15	35557	2008/09/15	2008/09/15
BKRP	U	2008/09/15	2018/06/14	890	1185464		35557	2008/09/15	2008/09/15
BKRP	U	2008/09/15	2018/06/14	890	1235336	US5249087M63	35557	2008/09/15	2008/09/15
BKRP	U	2008/09/15	2018/06/14	890	1288153		35557	2008/09/15	2008/09/15
BKRP	U	2008/09/15	2018/06/14	890	1289247	US5252M0BL06	35557	2008/09/15	2008/09/15
BKRP	U	2008/09/15	2018/06/14	890	1289334		35557	2008/09/15	2008/09/15
BKRP	U	2008/09/15	2018/06/14	890	1295384	US20846QEL86	35557	2008/09/15	2008/09/15
BKRP	U	2008/09/15	2018/06/14	890	1295395	US20846QEN43	35557	2008/09/15	2008/09/15
BKRP	U	2008/09/15	2018/06/14	890	1295406	US20846QEQ73	35557	2008/09/15	2008/09/15
BKRP	U	2008/09/15	2018/06/14	890	1296903	US52517P6E64	35557	2008/09/15	2008/09/15
BKRP	U	2008/09/15	2018/06/14	890	1296908	US5252M0BR75	35557	2008/09/15	2008/09/15
BKRP	U	2008/09/15	2018/06/14	890	1298932	US52517PUL39	35557	2008/09/15	2008/09/15
BKRP	U	2008/09/15	2018/06/14	890	1325366		35557	2008/09/15	2008/09/15
BKRP	U	2008/09/15	2018/06/14	890	1325375	US52517P2D28	35557	2008/09/15	2008/09/15
BKRP	U	2008/09/15	2018/06/14	890	1326021	US5252M0CV78	35557	2008/09/15	2008/09/15
BKRP	U	2008/09/15	2018/06/14	890	1328010	US52517P6C09	35557	2008/09/15	2008/09/15
BKRP	U	2008/09/15	2018/06/14	890	1329393	US52517P2E01	35557	2008/09/15	2008/09/15
BKRP	U	2008/09/15	2018/06/14	890	1329401	US52517P6T34	35557	2008/09/15	2008/09/15
BKRP	U	2008/09/15	2018/06/14	890	1329407	US52517PS281	35557	2008/09/15	2008/09/15
BKRP	U	2008/09/15	2018/06/14	890	1329409	US52517P2X81	35557	2008/09/15	2008/09/15
BKRP	U	2008/09/15	2018/06/14	890	1329420	US52517PX554	35557	2008/09/15	2008/09/15
BKRP	U	2008/09/15	2018/06/14	890	1329423	US52519FEK30	35557	2008/09/15	2008/09/15
BKRP	U	2008/09/15	2018/06/14	890	1329429	US52519FEL13	35557	2008/09/15	2008/09/15
BKRP	U	2008/09/15	2018/06/14	890	1329430	US52519FEG28	35557	2008/09/15	2008/09/15
BKRP	U	2008/09/15	2018/06/14	890	1329433	US5252M0AY36	35557	2008/09/15	2008/09/15
BKRP	U	2008/09/15	2018/06/14	890	1329447		35557	2008/09/15	2008/09/15
BKRP	U	2008/09/15	2018/06/14	890	1329452	US5252M0GD35	35557	2008/09/15	2008/09/15
BKRP	U	2008/09/15	2018/06/14	890	1508222	US52517P2Y64	35557	2008/09/15	2008/09/15
BKRP	U	2008/09/15	2018/06/14	890	1508486	US524908VQ07	35557	2008/09/15	2008/09/15
BKRP	U	2008/09/15	2018/06/14	890	1508491	US524908VP24	35557	2008/09/15	2008/09/15
BKRP	U	2008/09/15	2018/06/14	890	1508501	US524908VB38	35557	2008/09/15	2008/09/15
BKRP	U	2008/09/15	2018/06/14	890	1508912	US524908PC84	35557	2008/09/15	2008/09/15
BKRP	U	2008/09/15	2018/06/14	890	1509079	US5252M0GA95	35557	2008/09/15	2008/09/15
BKRP	U	2008/09/15	2018/06/14	890	1517060	US5252M0GP64	35557	2008/09/15	2008/09/15
BKRP	U	2008/09/15	2018/06/14	890	1517065	US5252M0GS04	35557	2008/09/15	2008/09/15
BKRP	U	2008/09/15	2018/06/14	890	1517067	US5252M0GR21	35557	2008/09/15	2008/09/15
BKRP	U	2008/09/15	2018/06/14	890	1517074	US5252M0GW16	35557	2008/09/15	2008/09/15
BKRP	U	2008/09/15	2018/06/14	890	1517076	US5252M0GX98	35557	2008/09/15	2008/09/15
BKRP	U	2008/09/15	2018/06/14	890	1517708	US524908J504	35557	2008/09/15	2008/09/15
BKRP	U	2008/09/15	2018/06/14	890	1517928	US5252M0CZ82	35557	2008/09/15	2008/09/15
BKRP	U	2008/09/15	2018/06/14	890	1517962	US5252M0FN26	35557	2008/09/15	2008/09/15
BKRP	U	2008/09/15	2018/06/14	890	1522744	US52517P6F30	35557	2008/09/15	2008/09/15
BKRP	U	2008/09/15	2018/06/14	890	1522799	US5252M0AB33	35557	2008/09/15	2008/09/15
BKRP	U	2008/09/15	2018/06/14	890	1523151	US5252M0GU59	35557	2008/09/15	2008/09/15
BKRP	U	2008/09/15	2018/06/14	890	1523160	US5252M0GF82	35557	2008/09/15	2008/09/15
BKRP	U	2008/09/15	2018/06/14	890	1523161	US5252M0GV33	35557	2008/09/15	2008/09/15
BKRP	U	2008/09/15	2018/06/14	890	1523162	US5252M0GJ05	35557	2008/09/15	2008/09/15
BKRP	U	2008/09/15	2018/06/14	890	1523188	US52523J5039	35557	2008/09/15	2008/09/15
BKRP	U	2008/09/15	2018/06/14	890	1523193	US5252M0GG65	35557	2008/09/15	2008/09/15
BKRP	U	2008/09/15	2018/06/14	890	1523198	US5252M0CD70	35557	2008/09/15	2008/09/15
BKRP	U	2008/09/15	2018/06/14	890	1523200	US52517P4U25	35557	2008/09/15	2008/09/15
BKRP	U	2008/09/15	2018/06/14	890	1523203	US5252M0GC51	35557	2008/09/15	2008/09/15
BKRP	U	2008/09/15	2018/06/14	890	1523213	US5252M0FZ55	35557	2008/09/15	2008/09/15
BKRP	U	2008/09/15	2018/06/14	890	1523217	US5252M0GM34	35557	2008/09/15	2008/09/15
BKRP	U	2008/09/15	2018/06/14	890	1523221	US5252M0GE18	35557	2008/09/15	2008/09/15
BKRP	U	2008/09/15	2018/06/14	890	1523256		35557	2008/09/15	2008/09/15
BKRP	U	2008/09/15	2018/06/14	890	1523257		35557	2008/09/15	2008/09/15
BKRP	U	2008/09/15	2018/06/14	890	1523266	US52523J2069	35557	2008/09/15	2008/09/15
BKRP	U	2008/09/15	2018/06/14	890	1523279	US52519FCV13	35557	2008/09/15	2008/09/15
BKRP	U	2008/09/15	2018/06/14	890	1523356	US5252M0DM60	35557	2008/09/15	2008/09/15
BKRP	U	2008/09/15	2018/06/14	890	1523372	US52519FFG19	35557	2008/09/15	2008/09/15
BKRP	U	2008/09/15	2018/06/14	890	1560135	US52517P3X72	35557	2008/09/15	2008/09/15
BKRP	U	2008/09/15	2018/06/14	890	1595391	US52517PVV02	35557	2008/09/15	2008/09/15
BKRP	U	2008/09/15	2018/06/14	890	1646354	US52519FEX50	35557	2008/09/15	2008/09/15
BKRP	U	2008/09/15	2018/06/14	890	1646356		35557	2008/09/15	2008/09/15
BKRP	U	2008/09/15	2018/06/14	890	1646360	US52517PYA38	35557	2008/09/15	2008/09/15
BKRP	U	2008/09/15	2018/06/14	890	1646369	US52519FEP27	35557	2008/09/15	2008/09/15
BKRP	U	2008/09/15	2018/06/14	890	1646376	US52519FEB31	35557	2008/09/15	2008/09/15
BKRP	U	2008/09/15	2018/06/14	890	1646386	US52517P3Y55	35557	2008/09/15	2008/09/15
BKRP	U	2008/09/15	2018/06/14	890	1646411	US52519FEQ00	35557	2008/09/15	2008/09/15
BKRP	U	2008/09/15	2018/06/14	890	1646428	US52519FEA57	35557	2008/09/15	2008/09/15
BKRP	U	2008/09/15	2018/06/14	890	1646445	US52519FED96	35557	2008/09/15	2008/09/15
BKRP	U	2008/09/15	2018/06/14	890	1646473	US52519FEF45	35557	2008/09/15	2008/09/15
BKRP	U	2008/09/15	2018/06/14	890	1656696	US52519FBD24	35557	2008/09/15	2008/09/15
BKRP	U	2008/09/15	2018/06/14	890	1656727	US52519FBT75	35557	2008/09/15	2008/09/15
BKRP	U	2008/09/15	2018/06/14	890	1656733	US52519FCH29	35557	2008/09/15	2008/09/15
BKRP	U	2008/09/15	2018/06/14	890	1656737	US52519FCD15	35557	2008/09/15	2008/09/15
BKRP	U	2008/09/15	2018/06/14	890	1669402	US52520WDE84	35557	2008/09/15	2008/09/15
BKRP	U	2008/09/15	2018/06/14	890	1670882		35557	2008/09/15	2008/09/15
BKRP	U	2008/09/15	2018/06/14	890	1674224	US524908XA37	35557	2008/09/15	2008/09/15
BKRP	U	2008/09/15	2018/06/14	890	1732200	US52517PZ872	35557	2008/09/15	2008/09/15
BKRP	U	2008/09/15	2018/06/14	890	1749615	US52520YAA55	35557	2008/09/15	2008/09/15
BKRP	U	2008/09/15	2018/06/14	890	1795637	US5252M0BJ59	35557	2008/09/15	2008/09/15
BKRP	U	2008/09/15	2018/06/14	890	1797553	US52517PNZ08	35557	2008/09/15	2008/09/15
BKRP	U	2008/09/15	2018/06/14	890	1891947	US52517PP964	35557	2008/09/15	2008/09/15
BKRP	U	2008/09/15	2018/06/14	890	1891997	US52517PS695	35557	2008/09/15	2008/09/15
BKRP	U	2008/09/15	2018/06/14	890	1892766	US52517PWA55	35557	2008/09/15	2008/09/15
BKRP	U	2008/09/15	2018/06/14	890	1892910	US52517PYD76	35557	2008/09/15	2008/09/15
BKRP	U	2008/09/15	2018/06/14	890	1897594	US52517PA271	35557	2008/09/15	2008/09/15
BKRP	U	2008/09/15	2018/06/14	890	1921517	US5252M0EJ23	35557	2008/09/15	2008/09/15
BKRP	U	2008/09/15	2018/06/14	890	1980250	US52517PWV92	35557	2008/09/15	2008/09/15
BKRP	U	2008/09/15	2018/06/14	890	1980256	US52517PL419	35557	2008/09/15	2008/09/15
BKRP	U	2008/09/15	2018/06/14	890	2042649	US52517PZ955	35557	2008/09/15	2008/09/15
BKRP	U	2008/09/15	2018/06/14	890	2292485	US5252M0CQ83	35557	2008/09/15	2008/09/15
BKRP	U	2008/09/15	2018/06/14	890	2424264	US52517PK759	35557	2008/09/15	2008/09/15
BKRP	U	2008/09/15	2018/06/14	890	2424294		35557	2008/09/15	2008/09/15
BKRP	U	2008/09/15	2018/06/14	890	2454118	US5252M0HA86	35557	2008/09/15	2008/09/15
BKRP	U	2008/09/15	2018/06/14	890	2710674	US52517PWW75	35557	2008/09/15	2008/09/15
BKRP	U	2008/09/15	2018/06/14	890	2710753	US52517PVY41	35557	2008/09/15	2008/09/15
BKRP	U	2008/09/15	2018/06/14	890	2745391	US52517PV657	35557	2008/09/15	2008/09/15
BKRP	U	2008/09/15	2018/06/14	890	2745633	US5249085D82	35557	2008/09/15	2008/09/15
BKRP	U	2008/09/15	2018/06/14	890	2745647	US52517PLK56	35557	2008/09/15	2008/09/15
BKRP	U	2008/09/15	2018/06/14	890	2745659	US52517PPX32	35557	2008/09/15	2008/09/15
BKRP	U	2008/09/15	2018/06/14	890	2745674	US52517PQB03	35557	2008/09/15	2008/09/15
BKRP	U	2008/09/15	2018/06/14	890	2745675	US52517PQC85	35557	2008/09/15	2008/09/15
BKRP	U	2008/09/15	2018/06/14	890	2745679	US52517PQE42	35557	2008/09/15	2008/09/15
BKRP	U	2008/09/15	2018/06/14	890	2745683	US52517PQJ39	35557	2008/09/15	2008/09/15
BKRP	U	2008/09/15	2018/06/14	890	2745686	US52517PQL84	35557	2008/09/15	2008/09/15
BKRP	U	2008/09/15	2018/06/14	890	2745696	US52517PQN41	35557	2008/09/15	2008/09/15
BKRP	U	2008/09/15	2018/06/14	890	2745701	US52517PQS38	35557	2008/09/15	2008/09/15
BKRP	U	2008/09/15	2018/06/14	890	2745717	US52517PRD59	35557	2008/09/15	2008/09/15
BKRP	U	2008/09/15	2018/06/14	890	2746373	US52517PRQ62	35557	2008/09/15	2008/09/15
BKRP	U	2008/09/15	2018/06/14	890	2746381	US52517PRT02	35557	2008/09/15	2008/09/15
BKRP	U	2008/09/15	2018/06/14	890	2746391	US52517PRU74	35557	2008/09/15	2008/09/15
BKRP	U	2008/09/15	2018/06/14	890	2746393	US52517PSR37	35557	2008/09/15	2008/09/15
BKRP	U	2008/09/15	2018/06/14	890	2746409	US52517PTL57	35557	2008/09/15	2008/09/15
BKRP	U	2008/09/15	2018/06/14	890	2746420	US52517PTH46	35557	2008/09/15	2008/09/15
BKRP	U	2008/09/15	2018/06/14	890	2746426	US52517PTS01	35557	2008/09/15	2008/09/15
BKRP	U	2008/09/15	2018/06/14	890	2746443	US52517PTW13	35557	2008/09/15	2008/09/15
BKRP	U	2008/09/15	2018/06/14	890	2746528		35557	2008/09/15	2008/09/15
BKRP	U	2008/09/15	2018/06/14	890	2980788	US52517PXC03	35557	2008/09/15	2008/09/15
BKRP	U	2008/09/15	2018/06/14	890	3622059	US524ESCUB46	35557	2008/09/15	2008/09/15
BKRP	U	2008/09/15	2018/06/14	890	3758782		35557	2008/09/15	2008/09/15
BKRP	U	2008/09/15	2018/06/14	890	3762142		35557	2008/09/15	2008/09/15
BKRP	U	2008/09/15	2018/06/14	890	3850379	US86359DAB38	35557	2008/09/15	2008/09/15
BKRP	U	2008/09/15	2018/06/14	890	3889262	US52517PVQ17	35557	2008/09/15	2008/09/15
BKRP	U	2008/09/15	2018/06/14	890	3889289	US52517PTC58	35557	2008/09/15	2008/09/15
BKRP	U	2008/09/15	2018/06/14	890	3889596	US52517PRE33	35557	2008/09/15	2008/09/15
BKRP	U	2008/09/15	2018/06/14	890	3889840	US52517PMP35	35557	2008/09/15	2008/09/15
BKRP	U	2008/09/15	2018/06/14	890	3889849	US52517PND95	35557	2008/09/15	2008/09/15
BKRP	U	2008/09/15	2018/06/14	890	3889880	US52517PPB12	35557	2008/09/15	2008/09/15
BKRP	U	2008/09/15	2018/06/14	890	3889903	US52517PRA11	35557	2008/09/15	2008/09/15
BKRP	U	2008/09/15	2018/06/14	890	3917702		35557	2008/09/15	2008/09/15
BKRP	U	2008/09/15	2018/06/14	890	3938709		35557	2008/09/15	2008/09/15
BKRP	U	2008/09/15	2018/06/14	890	3939262		35557	2008/09/15	2008/09/15
BKRP	U	2008/09/15	2018/06/14	890	3939266		35557	2008/09/15	2008/09/15
BKRP	U	2008/09/15	2018/06/14	890	3939268		35557	2008/09/15	2008/09/15
BKRP	U	2008/09/15	2018/06/14	890	3939651		35557	2008/09/15	2008/09/15
BKRP	U	2008/09/15	2018/06/14	890	3939676		35557	2008/09/15	2008/09/15
BKRP	U	2008/09/15	2018/06/14	890	3939690		35557	2008/09/15	2008/09/15
BKRP	U	2008/09/15	2018/06/14	890	3939693		35557	2008/09/15	2008/09/15
BKRP	U	2008/09/15	2018/06/14	890	3939699		35557	2008/09/15	2008/09/15
BKRP	U	2008/09/15	2018/06/14	890	3939703		35557	2008/09/15	2008/09/15
BKRP	U	2008/09/15	2018/06/14	890	3968201	US52517PRV57	35557	2008/09/15	2008/09/15
BKRP	U	2008/09/15	2018/06/14	890	3987280	US52517PVL20	35557	2008/09/15	2008/09/15
BKRP	U	2008/09/15	2018/06/14	890	4007707		35557	2008/09/15	2008/09/15
BKRP	U	2008/09/15	2018/06/14	890	4043377	US5252MOFD26	35557	2008/09/15	2008/09/15
BKRP	U	2008/09/15	2018/06/14	890	4062673	US52517PS935	35557	2008/09/15	2008/09/15
BKRP	U	2008/09/15	2018/06/14	890	4115594	US52517P4X63	35557	2008/09/15	2008/09/15
BKRP	U	2008/09/15	2018/06/14	890	4115604	US52517P6S50	35557	2008/09/15	2008/09/15
BKRP	U	2008/09/15	2018/06/14	890	4115622	US52517PM573	35557	2008/09/15	2008/09/15
BKRP	U	2008/09/15	2018/06/14	890	4115639	US52517PQ202	35557	2008/09/15	2008/09/15
BKRP	U	2008/09/15	2018/06/14	890	4115649	US52517PS448	35557	2008/09/15	2008/09/15
BKRP	U	2008/09/15	2018/06/14	890	4115658	US52517PT925	35557	2008/09/15	2008/09/15
BKRP	U	2008/09/15	2018/06/14	890	4115698	US5252M0AM97	35557	2008/09/15	2008/09/15
BKRP	U	2008/09/15	2018/06/14	890	4115796	US5252M0CK14	35557	2008/09/15	2008/09/15
BKRP	U	2008/09/15	2018/06/14	890	4116112	US52517PK429	35557	2008/09/15	2008/09/15
BKRP	U	2008/09/15	2018/06/14	890	4116127	US52517PL252	35557	2008/09/15	2008/09/15
BKRP	U	2008/09/15	2018/06/14	890	4182976	US52517P3F66	35557	2008/09/15	2008/09/15
BKRP	U	2008/09/15	2018/06/14	890	4257702	US524908NA47	35557	2008/09/15	2008/09/15
BKRP	U	2008/09/15	2018/06/14	890	4286950	US52517P2P57	35557	2008/09/15	2008/09/15
BKRP	U	2008/09/15	2018/06/14	890	4287125	US52517P5K34	35557	2008/09/15	2008/09/15
BKRP	U	2008/09/15	2018/06/14	890	4287158	US52517PH466	35557	2008/09/15	2008/09/15
BKRP	U	2008/09/15	2018/06/14	890	4287172	US52517PL666	35557	2008/09/15	2008/09/15
BKRP	U	2008/09/15	2018/06/14	890	4287178	US52517PM243	35557	2008/09/15	2008/09/15
BKRP	U	2008/09/15	2018/06/14	890	4287187	US52517PM813	35557	2008/09/15	2008/09/15
BKRP	U	2008/09/15	2018/06/14	890	4287190	US52517PQ871	35557	2008/09/15	2008/09/15
BKRP	U	2008/09/15	2018/06/14	890	4287194	US52517PR291	35557	2008/09/15	2008/09/15
BKRP	U	2008/09/15	2018/06/14	890	4381036		35557	2008/09/15	2008/09/15
BKRP	U	2008/09/15	2018/06/14	890	4381047		35557	2008/09/15	2008/09/15
BKRP	U	2008/09/15	2018/06/14	890	4381063		35557	2008/09/15	2008/09/15
BKRP	U	2008/09/15	2018/06/14	890	4381078		35557	2008/09/15	2008/09/15
BKRP	U	2008/09/15	2018/06/14	890	4381193		35557	2008/09/15	2008/09/15
BKRP	U	2008/09/15	2018/06/14	890	4381197		35557	2008/09/15	2008/09/15
BKRP	U	2008/09/15	2018/06/14	890	4481553	US5252M0EH66	35557	2008/09/15	2008/09/15
BKRP	U	2008/09/15	2018/06/14	890	4480736	US524935AW35	35557	2008/09/15	2008/09/15
BKRP	U	2008/09/15	2018/06/14	890	4480871	US52517P5N72	35557	2008/09/15	2008/09/15
BKRP	U	2008/09/15	2018/06/14	890	4480925	US5249087D64	35557	2008/09/15	2008/09/15
BKRP	U	2008/09/15	2018/06/14	890	4480941	US52517PQ467	35557	2008/09/15	2008/09/15
BKRP	U	2008/09/15	2018/06/14	890	4480976	US52517PL336	35557	2008/09/15	2008/09/15
BKRP	U	2008/09/15	2018/06/14	890	4481099	US52517PQ533	35557	2008/09/15	2008/09/15
BKRP	U	2008/09/15	2018/06/14	890	4481113	US52517P7H86	35557	2008/09/15	2008/09/15
BKRP	U	2008/09/15	2018/06/14	890	4481122	US52517PQ616	35557	2008/09/15	2008/09/15
BKRP	U	2008/09/15	2018/06/14	890	4481144	US5252M0DU86	35557	2008/09/15	2008/09/15
BKRP	U	2008/09/15	2018/06/14	890	4481165	US5252M0DK05	35557	2008/09/15	2008/09/15
BKRP	U	2008/09/15	2018/06/14	890	4481167	US524935CR22	35557	2008/09/15	2008/09/15
BKRP	U	2008/09/15	2018/06/14	890	4481182	US524935CP65	35557	2008/09/15	2008/09/15
BKRP	U	2008/09/15	2018/06/14	890	4481198	US52517P3T60	35557	2008/09/15	2008/09/15
BKRP	U	2008/09/15	2018/06/14	890	4481199	US5252M0BA41	35557	2008/09/15	2008/09/15
BKRP	U	2008/09/15	2018/06/14	890	4481202	US52517P7B17	35557	2008/09/15	2008/09/15
BKRP	U	2008/09/15	2018/06/14	890	4481207	US5252M0EM51	35557	2008/09/15	2008/09/15
BKRP	U	2008/09/15	2018/06/14	890	4481208	US52517P2T79	35557	2008/09/15	2008/09/15
BKRP	U	2008/09/15	2018/06/14	890	4481210	US524908MG26	35557	2008/09/15	2008/09/15
BKRP	U	2008/09/15	2018/06/14	890	4481211	US5252M0DQ74	35557	2008/09/15	2008/09/15
BKRP	U	2008/09/15	2018/06/14	890	4481216	US5252M0AZ01	35557	2008/09/15	2008/09/15
BKRP	U	2008/09/15	2018/06/14	890	4481221	US5252M0BV87	35557	2008/09/15	2008/09/15
BKRP	U	2008/09/15	2018/06/14	890	4481224	US5249083W81	35557	2008/09/15	2008/09/15
BKRP	U	2008/09/15	2018/06/14	890	4481228	US52517P7D72	35557	2008/09/15	2008/09/15
BKRP	U	2008/09/15	2018/06/14	890	4481232	US5252M0FY80	35557	2008/09/15	2008/09/15
BKRP	U	2008/09/15	2018/06/14	890	4481234	US524935AY90	35557	2008/09/15	2008/09/15
BKRP	U	2008/09/15	2018/06/14	890	4481240	US524935CL51	35557	2008/09/15	2008/09/15
BKRP	U	2008/09/15	2018/06/14	890	4481243	US524935EN99	35557	2008/09/15	2008/09/15
BKRP	U	2008/09/15	2018/06/14	890	4481245	US5249086W54	35557	2008/09/15	2008/09/15
BKRP	U	2008/09/15	2018/06/14	890	4481249	US5252M0BF38	35557	2008/09/15	2008/09/15
BKRP	U	2008/09/15	2018/06/14	890	4481251	US52517P6U07	35557	2008/09/15	2008/09/15
BKRP	U	2008/09/15	2018/06/14	890	4481256	US5252M0BG11	35557	2008/09/15	2008/09/15
BKRP	U	2008/09/15	2018/06/14	890	4481257	US5249083B45	35557	2008/09/15	2008/09/15
BKRP	U	2008/09/15	2018/06/14	890	4481262	US52522L3502	35557	2008/09/15	2008/09/15
BKRP	U	2008/09/15	2018/06/14	890	4481263	US5252M0BT32	35557	2008/09/15	2008/09/15
BKRP	U	2008/09/15	2018/06/14	890	4481270	US52517P3V17	35557	2008/09/15	2008/09/15
BKRP	U	2008/09/15	2018/06/14	890	4481273	US52517P5J60	35557	2008/09/15	2008/09/15
BKRP	U	2008/09/15	2018/06/14	890	4481277	US5252M0FL69	35557	2008/09/15	2008/09/15
BKRP	U	2008/09/15	2018/06/14	890	4481280	US524935DP56	35557	2008/09/15	2008/09/15
BKRP	U	2008/09/15	2018/06/14	890	4481285	US524935CQ49	35557	2008/09/15	2008/09/15
BKRP	U	2008/09/15	2018/06/14	890	4481289	US52517PC582	35557	2008/09/15	2008/09/15
BKRP	U	2008/09/15	2018/06/14	890	4481293	US524908S273	35557	2008/09/15	2008/09/15
BKRP	U	2008/09/15	2018/06/14	890	4481298	US52517P4W80	35557	2008/09/15	2008/09/15
BKRP	U	2008/09/15	2018/06/14	890	4481304	US524908SQ44	35557	2008/09/15	2008/09/15
BKRP	U	2008/09/15	2018/06/14	890	4481306	US52517P5D90	35557	2008/09/15	2008/09/15
BKRP	U	2008/09/15	2018/06/14	890	4481307	US524908N308	35557	2008/09/15	2008/09/15
BKRP	U	2008/09/15	2018/06/14	890	4481312	US52517P5E73	35557	2008/09/15	2008/09/15
BKRP	U	2008/09/15	2018/06/14	890	4481331	US52517P5C18	35557	2008/09/15	2008/09/15
BKRP	U	2008/09/15	2018/06/14	890	4481340	US52517PC418	35557	2008/09/15	2008/09/15
BKRP	U	2008/09/15	2018/06/14	890	4481344	US524908X216	35557	2008/09/15	2008/09/15
BKRP	U	2008/09/15	2018/06/14	890	4481346	US524935CU50	35557	2008/09/15	2008/09/15
BKRP	U	2008/09/15	2018/06/14	890	4481350	US524935AX18	35557	2008/09/15	2008/09/15
BKRP	U	2008/09/15	2018/06/14	890	4481353	US524935EA78	35557	2008/09/15	2008/09/15
BKRP	U	2008/09/15	2018/06/14	890	4481355	US524935DQ30	35557	2008/09/15	2008/09/15
BKRP	U	2008/09/15	2018/06/14	890	4481358	US5252M0FE27	35557	2008/09/15	2008/09/15
BKRP	U	2008/09/15	2018/06/14	890	4481386	US5249087E48	35557	2008/09/15	2008/09/15
BKRP	U	2008/09/15	2018/06/14	890	4481388	US52517P6V89	35557	2008/09/15	2008/09/15
BKRP	U	2008/09/15	2018/06/14	890	4481538	US52522L8220	35557	2008/09/15	2008/09/15
BKRP	U	2008/09/15	2018/06/14	890	4481543	US524908LK47	35557	2008/09/15	2008/09/15
BKRP	U	2008/09/15	2018/06/14	890	4481548	US52523J2978	35557	2008/09/15	2008/09/15
BKRP	U	2008/09/15	2018/06/14	890	4481622	US524908N480	35557	2008/09/15	2008/09/15
BKRP	U	2008/09/15	2018/06/14	890	4481644	US524935AV51	35557	2008/09/15	2008/09/15
BKRP	U	2008/09/15	2018/06/14	890	4481652	US5249086V71	35557	2008/09/15	2008/09/15
BKRP	U	2008/09/15	2018/06/14	890	4481679	US524935CZ48	35557	2008/09/15	2008/09/15
BKRP	U	2008/09/15	2018/06/14	890	4481690	US524935BF92	35557	2008/09/15	2008/09/15
BKRP	U	2008/09/15	2018/06/14	890	4481869	US524935CJ06	35557	2008/09/15	2008/09/15
BKRP	U	2008/09/15	2018/06/14	890	4481872	US5252M0BP10	35557	2008/09/15	2008/09/15
BKRP	U	2008/09/15	2018/06/14	890	4481873	US524908L732	35557	2008/09/15	2008/09/15
BKRP	U	2008/09/15	2018/06/14	890	4481874	US5252M0CJ41	35557	2008/09/15	2008/09/15
BKRP	U	2008/09/15	2018/06/14	890	4481880	US52517P4R95	35557	2008/09/15	2008/09/15
BKRP	U	2008/09/15	2018/06/14	890	4481882	US5252M0BB24	35557	2008/09/15	2008/09/15
BKRP	U	2008/09/15	2018/06/14	890	4481886	US524935AK96	35557	2008/09/15	2008/09/15
BKRP	U	2008/09/15	2018/06/14	890	4481897	US524935DR13	35557	2008/09/15	2008/09/15
BKRP	U	2008/09/15	2018/06/14	890	4481905	US52517P5P21	35557	2008/09/15	2008/09/15
BKRP	U	2008/09/15	2018/06/14	890	4481911	US52517P4Q13	35557	2008/09/15	2008/09/15
BKRP	U	2008/09/15	2018/06/14	890	4481915	US5249087K08	35557	2008/09/15	2008/09/15
BKRP	U	2008/09/15	2018/06/14	890	4481919	US5252M0AQ02	35557	2008/09/15	2008/09/15
BKRP	U	2008/09/15	2018/06/14	890	4481934	US5249087C81	35557	2008/09/15	2008/09/15
BKRP	U	2008/09/15	2018/06/14	890	4481936	US52522L5580	35557	2008/09/15	2008/09/15
BKRP	U	2008/09/15	2018/06/14	890	4481939	US52517P3C36	35557	2008/09/15	2008/09/15
BKRP	U	2008/09/15	2018/06/14	890	4481941	US524908NC03	35557	2008/09/15	2008/09/15
BKRP	U	2008/09/15	2018/06/14	890	4481943	US52520WDF59	35557	2008/09/15	2008/09/15
BKRP	U	2008/09/15	2018/06/14	890	4481944	US52517PU337	35557	2008/09/15	2008/09/15
BKRP	U	2008/09/15	2018/06/14	890	4481946	US524935AJ24	35557	2008/09/15	2008/09/15
BKRP	U	2008/09/15	2018/06/14	890	4481955	US5249083S79	35557	2008/09/15	2008/09/15
BKRP	U	2008/09/15	2018/06/14	890	4481957	US524935EE90	35557	2008/09/15	2008/09/15
BKRP	U	2008/09/15	2018/06/14	890	4481958	US524935CN18	35557	2008/09/15	2008/09/15
BKRP	U	2008/09/15	2018/06/14	890	4481959	US524935CK78	35557	2008/09/15	2008/09/15
BKRP	U	2008/09/15	2018/06/14	890	4481962	US524935BY81	35557	2008/09/15	2008/09/15
BKRP	U	2008/09/15	2018/06/14	890	4481963	US524935EK50	35557	2008/09/15	2008/09/15
BKRP	U	2008/09/15	2018/06/14	890	4481964	US52517P6Z93	35557	2008/09/15	2008/09/15
BKRP	U	2008/09/15	2018/06/14	890	4481965	US524908R697	35557	2008/09/15	2008/09/15
BKRP	U	2008/09/15	2018/06/14	890	4481969	US52517P4M09	35557	2008/09/15	2008/09/15
BKRP	U	2008/09/15	2018/06/14	890	4481970	US52520WAZ41	35557	2008/09/15	2008/09/15
BKRP	U	2008/09/15	2018/06/14	890	4481980	US524908X547	35557	2008/09/15	2008/09/15
BKRP	U	2008/09/15	2018/06/14	890	4481984	US52517P3W99	35557	2008/09/15	2008/09/15
BKRP	U	2008/09/15	2018/06/14	890	4481985	US5249086T26	35557	2008/09/15	2008/09/15
BKRP	U	2008/09/15	2018/06/14	890	4481986	US524935BR31	35557	2008/09/15	2008/09/15
BKRP	U	2008/09/15	2018/06/14	890	4481987	US52517P3P49	35557	2008/09/15	2008/09/15
BKRP	U	2008/09/15	2018/06/14	890	4481988	US524935DU42	35557	2008/09/15	2008/09/15
BKRP	U	2008/09/15	2018/06/14	890	4481989	US524935CH40	35557	2008/09/15	2008/09/15
BKRP	U	2008/09/15	2018/06/14	890	4481991	US524935DW08	35557	2008/09/15	2008/09/15
BKRP	U	2008/09/15	2018/06/14	890	4481995	US524935DE00	35557	2008/09/15	2008/09/15
BKRP	U	2008/09/15	2018/06/14	890	4481998	US524935EM17	35557	2008/09/15	2008/09/15
BKRP	U	2008/09/15	2018/06/14	890	4482000	US524935BE28	35557	2008/09/15	2008/09/15
BKRP	U	2008/09/15	2018/06/14	890	4482002	US524935EB51	35557	2008/09/15	2008/09/15
BKRP	U	2008/09/15	2018/06/14	890	4482004	US524935DY63	35557	2008/09/15	2008/09/15
BKRP	U	2008/09/15	2018/06/14	890	4482005	US524935DN09	35557	2008/09/15	2008/09/15
BKRP	U	2008/09/15	2018/06/14	890	4482009	US524935BV43	35557	2008/09/15	2008/09/15
BKRP	U	2008/09/15	2018/06/14	890	4482011	US524935AZ65	35557	2008/09/15	2008/09/15
BKRP	U	2008/09/15	2018/06/14	890	4482013	US524935EC35	35557	2008/09/15	2008/09/15
BKRP	U	2008/09/15	2018/06/14	890	4482014	US524935EF65	35557	2008/09/15	2008/09/15
BKRP	U	2008/09/15	2018/06/14	890	4482016	US524935DA87	35557	2008/09/15	2008/09/15
BKRP	U	2008/09/15	2018/06/14	890	4482018	US524935DK69	35557	2008/09/15	2008/09/15
BKRP	U	2008/09/15	2018/06/14	890	4482021	US524935CM35	35557	2008/09/15	2008/09/15
BKRP	U	2008/09/15	2018/06/14	890	4482026	US5249084X55	35557	2008/09/15	2008/09/15
BKRP	U	2008/09/15	2018/06/14	890	4482029	US5249087F13	35557	2008/09/15	2008/09/15
BKRP	U	2008/09/15	2018/06/14	890	4482033	US524935CT87	35557	2008/09/15	2008/09/15
BKRP	U	2008/09/15	2018/06/14	890	4482034	US524935BN27	35557	2008/09/15	2008/09/15
BKRP	U	2008/09/15	2018/06/14	890	4482035	US524935DD27	35557	2008/09/15	2008/09/15
BKRP	U	2008/09/15	2018/06/14	890	4482253	US524908R515	35557	2008/09/15	2008/09/15
BKRP	U	2008/09/15	2018/06/14	890	4482271	US524908R770	35557	2008/09/15	2008/09/15
BKRP	U	2008/09/15	2018/06/14	890	4482276	US52523J3059	35557	2008/09/15	2008/09/15
BKRP	U	2008/09/15	2018/06/14	890	4482279	US82087KAG40	35557	2008/09/15	2008/09/15
BKRP	U	2008/09/15	2018/06/14	890	4482288	US524908JK74	35557	2008/09/15	2008/09/15
BKRP	U	2008/09/15	2018/06/14	890	4482314	US5252M0AE71	35557	2008/09/15	2008/09/15
BKRP	U	2008/09/15	2018/06/14	890	4482341	US524935BG75	35557	2008/09/15	2008/09/15
BKRP	U	2008/09/15	2018/06/14	890	4482342	US52517P4E82	35557	2008/09/15	2008/09/15
BKRP	U	2008/09/15	2018/06/14	890	4482357	US5252M0CE53	35557	2008/09/15	2008/09/15
BKRP	U	2008/09/15	2018/06/14	890	4482360	US524908ET39	35557	2008/09/15	2008/09/15
BKRP	U	2008/09/15	2018/06/14	890	4482363	US52520WBD20	35557	2008/09/15	2008/09/15
BKRP	U	2008/09/15	2018/06/14	890	4482364	US524935BX09	35557	2008/09/15	2008/09/15
BKRP	U	2008/09/15	2018/06/14	890	4482373	US5249083H15	35557	2008/09/15	2008/09/15
BKRP	U	2008/09/15	2018/06/14	890	4482382	US5252M0AS67	35557	2008/09/15	2008/09/15
BKRP	U	2008/09/15	2018/06/14	890	4482385	US524935DB60	35557	2008/09/15	2008/09/15
BKRP	U	2008/09/15	2018/06/14	890	4482404	US524935DV25	35557	2008/09/15	2008/09/15
BKRP	U	2008/09/15	2018/06/14	890	4482410	US524908J926	35557	2008/09/15	2008/09/15
BKRP	U	2008/09/15	2018/06/14	890	4482416	US524935CV34	35557	2008/09/15	2008/09/15
BKRP	U	2008/09/15	2018/06/14	890	4482420	US524935CA96	35557	2008/09/15	2008/09/15
BKRP	U	2008/09/15	2018/06/14	890	4482422	US5252M0EP82	35557	2008/09/15	2008/09/15
BKRP	U	2008/09/15	2018/06/14	890	4482435	US524935AP83	35557	2008/09/15	2008/09/15
BKRP	U	2008/09/15	2018/06/14	890	4482445	US5252M0DD61	35557	2008/09/15	2008/09/15
BKRP	U	2008/09/15	2018/06/14	890	4482461	US52517P6Q94	35557	2008/09/15	2008/09/15
BKRP	U	2008/09/15	2018/06/14	890	4482469	US524908MB39	35557	2008/09/15	2008/09/15
BKRP	U	2008/09/15	2018/06/14	890	4482476	US5252M0AH03	35557	2008/09/15	2008/09/15
BKRP	U	2008/09/15	2018/06/14	890	4482546	US524935CW17	35557	2008/09/15	2008/09/15
BKRP	U	2008/09/15	2018/06/14	890	4482548	US5249085R78	35557	2008/09/15	2008/09/15
BKRP	U	2008/09/15	2018/06/14	890	4482552	US524935DF74	35557	2008/09/15	2008/09/15
BKRP	U	2008/09/15	2018/06/14	890	4482570	US524935CX99	35557	2008/09/15	2008/09/15
BKRP	U	2008/09/15	2018/06/14	890	4482580	US5249086N55	35557	2008/09/15	2008/09/15
BKRP	U	2008/09/15	2018/06/14	890	4482589	US5252M0FF91	35557	2008/09/15	2008/09/15
BKRP	U	2008/09/15	2018/06/14	890	4482595	US524935ED18	35557	2008/09/15	2008/09/15
BKRP	U	2008/09/15	2018/06/14	890	4482597	US524935CE19	35557	2008/09/15	2008/09/15
BKRP	U	2008/09/15	2018/06/14	890	4482599	US524935DX80	35557	2008/09/15	2008/09/15
BKRP	U	2008/09/15	2018/06/14	890	4482601	US52520WAM38	35557	2008/09/15	2008/09/15
BKRP	U	2008/09/15	2018/06/14	890	4482607	US524935CS05	35557	2008/09/15	2008/09/15
BKRP	U	2008/09/15	2018/06/14	890	4482609	US5252M0CG02	35557	2008/09/15	2008/09/15
BKRP	U	2008/09/15	2018/06/14	890	4482615	US524908NV83	35557	2008/09/15	2008/09/15
BKRP	U	2008/09/15	2018/06/14	890	4482621	US524908K254	35557	2008/09/15	2008/09/15
BKRP	U	2008/09/15	2018/06/14	890	4482629	US524935AT06	35557	2008/09/15	2008/09/15
BKRP	U	2008/09/15	2018/06/14	890	4482633	US5252M0EF01	35557	2008/09/15	2008/09/15
BKRP	U	2008/09/15	2018/06/14	890	4482647	US5252M0DF10	35557	2008/09/15	2008/09/15
BKRP	U	2008/09/15	2018/06/14	890	4482658	US524935DT78	35557	2008/09/15	2008/09/15
BKRP	U	2008/09/15	2018/06/14	890	4482667	US524935CY72	35557	2008/09/15	2008/09/15
BKRP	U	2008/09/15	2018/06/14	890	4482668	US5252M0FG74	35557	2008/09/15	2008/09/15
BKRP	U	2008/09/15	2018/06/14	890	4482682	US524935EL34	35557	2008/09/15	2008/09/15
BKRP	U	2008/09/15	2018/06/14	890	4482688	US524935DM26	35557	2008/09/15	2008/09/15
BKRP	U	2008/09/15	2018/06/14	890	4482894	US5252M0FM43	35557	2008/09/15	2008/09/15
BKRP	U	2008/09/15	2018/06/14	890	4482904	US5252M0AX52	35557	2008/09/15	2008/09/15
BKRP	U	2008/09/15	2018/06/14	890	4482926	US5252M0EL78	35557	2008/09/15	2008/09/15
BKRP	U	2008/09/15	2018/06/14	890	4482946	US52517P6R77	35557	2008/09/15	2008/09/15
BKRP	U	2008/09/15	2018/06/14	890	4483008	US52517P6Y29	35557	2008/09/15	2008/09/15
BKRP	U	2008/09/15	2018/06/14	890	4483018	US52517P3R05	35557	2008/09/15	2008/09/15
BKRP	U	2008/09/15	2018/06/14	890	4483026	US52517P6G13	35557	2008/09/15	2008/09/15
BKRP	U	2008/09/15	2018/06/14	890	4483038	US5249087A26	35557	2008/09/15	2008/09/15
BKRP	U	2008/09/15	2018/06/14	890	4559964	US524ESC7M62	35557	2008/09/15	2008/09/15
BKRP	U	2008/09/15	2018/06/14	890	4745735	US525ESC8104	35557	2008/09/15	2008/09/15
BKRP	U	2008/09/15	2018/06/14	890	5023491	US52517PT354	35557	2008/09/15	2008/09/15
BKRP	U	2008/09/15	2018/06/14	890	5103262	US524ESCC995	35557	2008/09/15	2008/09/15
BKRP	U	2008/09/15	2018/06/14	890	5103268	US52521EFQ89	35557	2008/09/15	2008/09/15
BKRP	U	2008/09/15	2018/06/14	890	5103270	US52521ENL01	35557	2008/09/15	2008/09/15
BKRP	U	2008/09/15	2018/06/14	890	5160281		35557	2008/09/15	2008/09/15
BKRP	U	2008/09/15	2018/06/14	890	5160291	US525ESCKW83	35557	2008/09/15	2008/09/15
BKRP	U	2008/09/15	2018/06/14	890	5290081	US52517PY628	35557	2008/09/15	2008/09/15
BKRP	U	2008/09/15	2018/06/14	890	5353519	US525ESC6Q74	35557	2008/09/15	2008/09/15
BKRP	U	2008/09/15	2018/06/14	890	5353525	US525ESC4I76	35557	2008/09/15	2008/09/15
BKRP	U	2017/05/26	2018/01/15	2137	5573083	US90131JAC53	171835	2017/05/25	2017/05/25
BKRP	U	2017/05/26	2018/01/15	2137	5573100	US90131JAB70	171835	2017/05/25	2017/05/25
BKRP	U	2018/03/13	2018/06/14	2223	4154165	US686164AA22	109262	2018/03/12	2018/03/12
BKRP	U	2018/03/13	2018/06/14	2223	4415643	US686164AB05	109262	2018/03/12	2018/03/12
BKRP	U	2018/03/13	2018/06/14	2223	4738624		109262	2018/03/12	2018/03/12
BKRP	U	2018/03/13	2018/06/14	2223	5054761	US686164AC87	109262	2018/03/12	2018/03/12
BKRP	U	2018/03/13	2018/06/14	2223	5464317	US686164AD60	109262	2018/03/12	2018/03/12
EDI_ENDOFFILE
