EDI_INCHG_20180614
TableName	Actflag	Created	Changed	InChgID	SecID	ISIN	IssID	InChgDate	OldCntryCD	NewCntryCD	EventType
INCHG	I	2017/04/05	2017/04/05	3396	5547036	US87854XAD30	191316	2017/01/06	FR	GB	CLEAN
EDI_ENDOFFILE
