EDI_CONVT_20180614
TableName	Actflag	Created	Changed	ConvtID	SecID	ISIN	FromDate	ToDate	RatioNew	RatioOld	CurenCD	CurPair	Price	MandOptFlag	ResSecID	ResSectyCD	ResISIN	ResIssuername	ResSecurityDesc	Fractions	FXrate	PartFinalFlag	PriceAsPercent	Notes
CONVT	U	2015/12/03	2018/06/14	23557	4394014	US928298AK41	2017/12/06	2041/05/14			USD		17.63	O	44271	EQS	US9282981086	Vishay Intertechnology, Inc.	Ordinary Shares			P		As on 02/12/2015<BR><BR>The quarterly cash dividend program of Vishay Intertechnology, Inc. (the `Company`) results in adjustments to the conversion rate<BR>and effective conversion price for each issuance of the Company`s convertible senior debentures, specifically, the 2.25% Convertible<BR>Senior Debentures due 2040, the 2.25% Convertible Senior Debentures due 2041, and the 2.25% Convertible Senior Debentures due<BR>2042. As required by the indentures governing the terms of each issuance of debentures, the Company has delivered a notice and<BR>officers ` certificate to the trustees regarding these adjustments.<BR>Pursuant to the indentures governing the terms of each issuance of debentures, effective December 1, 2015 (the ex-dividend date),<BR>the adjusted conversion rate and adjusted effective conversion price are as follows (subject to the conditions applicable to conversion<BR>of debentures set forth in the indentures):<BR>                                                                                                                                                         Due 2040       Due 2041           Due 2042<BR>Conversion Rate (shares of common stock per USD1,000 principal amount of<BR>debentures)                                                                                                                                     74.7087         54.5185            87.8395<BR>Effective conversion price (per share)                                                                                        USD 13.39          USD 18.34     USD 11.38
CONVT	U	2013/10/16	2018/06/14	16137	2692414	US928298AJ77	2017/12/06	2041/05/14	56.721497447532	1	USD		17.63	O	44271	EQS	US9282981086	Vishay Intertechnology, Inc.	Ordinary Shares			P		
CONVT	U	2013/10/16	2018/06/14	16138	3869362	US928298AL24	2017/12/06	2042/05/31	91.407678244972	1	USD		10.94	O	44271	EQS	US9282981086	Vishay Intertechnology, Inc.	Ordinary Shares			P		
CONVT	U	2015/01/30	2018/06/14	21550	2214429	US928298AG39	2017/12/06	2040/11/14	155.52099533437	1	USD		12.86	O	44271	EQS	US9282981086	Vishay Intertechnology, Inc.	Ordinary Shares	C		P		
CONVT	I	2018/06/14	2018/06/14	30502	5573761		2018/06/19	2023/06/14			USD		193.65	O	3861977	EQS	US74967X1037	RH	Ordinary Shares - Class A			P		The initial conversion rate is 5.1640 shares of common stock per USD1,000 principal amount of notes, which is equivalent to an initial conversion price of approximately USD193.65 per share representing a premium of 25% over today`s closing stock price.
EDI_ENDOFFILE
