EDI_CIKCH_20180614
TableName	Actflag	Created	Changed	IssID	EffectiveDate	OldCIK	NewCIK	CIKChID
CIKCH	I	2017/06/29	2017/06/29	182295	2017/06/28		0001258623	167
CIKCH	I	2018/01/05	2018/01/05	191316	2018/01/05		0001681459	2150
EDI_ENDOFFILE
